{"photos": {"photo": [{"isfamily": 0, "width_m": "500", "datetakengranularity": 0, "farm": 9, "height_m": "390", "title": "A. J. Peirce & Brother Trade Card, circa 1890s - Valparaiso, Indiana", "secret": "795dc6e87d", "server": "8328", "datetaken": "2016-09-17 04:09:39", "isfriend": 0, "url_m": "https://farm9.staticflickr.com/8328/29109853834_795dc6e87d.jpg", "ispublic": 1, "datetakenunknown": "1", "owner": "24724221@N07", "id": "29109853834", "dateupload": "1474110579"}, {"isfamily": 0, "width_m": "500", "datetakengranularity": "0", "farm": 9, "height_m": "500", "title": "dxoP6280076", "secret": "5c5171feae", "server": "8582", "datetaken": "2016-06-28 21:26:17", "isfriend": 0, "url_m": "https://farm9.staticflickr.com/8582/28491497366_5c5171feae.jpg", "ispublic": 1, "datetakenunknown": "0", "owner": "130421523@N02", "id": "28491497366", "dateupload": "1469394652"}, {"isfamily": 0, "width_m": "500", "datetakengranularity": "0", "farm": 9, "height_m": "333", "title": "cat's", "secret": "8f84b4e0f3", "server": "8274", "datetaken": "2016-06-08 15:54:14", "isfriend": 0, "url_m": "https://farm9.staticflickr.com/8274/29337352030_8f84b4e0f3.jpg", "ispublic": 1, "datetakenunknown": "0", "owner": "134269399@N04", "id": "29337352030", "dateupload": "1473671913"}, {"isfamily": 0, "width_m": "500", "datetakengranularity": "0", "farm": 9, "height_m": "333", "title": "cat's", "secret": "8693c112c0", "server": "8272", "datetaken": "2016-06-08 15:54:22", "isfriend": 0, "url_m": "https://farm9.staticflickr.com/8272/29516936202_8693c112c0.jpg", "ispublic": 1, "datetakenunknown": "0", "owner": "134269399@N04", "id": "29516936202", "dateupload": "1473671913"}, {"isfamily": 0, "width_m": "500", "datetakengranularity": "0", "farm": 9, "height_m": "333", "title": "cat's", "secret": "73ff55c123", "server": "8506", "datetaken": "2016-06-08 15:52:42", "isfriend": 0, "url_m": "https://farm9.staticflickr.com/8506/29546964171_73ff55c123.jpg", "ispublic": 1, "datetakenunknown": "0", "owner": "134269399@N04", "id": "29546964171", "dateupload": "1473671913"}, {"isfamily": 0, "width_m": "500", "datetakengranularity": "0", "farm": 9, "height_m": "333", "title": "cat's", "secret": "f7fb6a612a", "server": "8087", "datetaken": "2016-06-08 15:52:54", "isfriend": 0, "url_m": "https://farm9.staticflickr.com/8087/29003813123_f7fb6a612a.jpg", "ispublic": 1, "datetakenunknown": "0", "owner": "134269399@N04", "id": "29003813123", "dateupload": "1473671915"}, {"isfamily": 0, "width_m": "500", "datetakengranularity": "0", "farm": 9, "height_m": "333", "title": "cat's", "secret": "0fb956f7e2", "server": "8856", "datetaken": "2016-06-08 15:53:06", "isfriend": 0, "url_m": "https://farm9.staticflickr.com/8856/29001791664_0fb956f7e2.jpg", "ispublic": 1, "datetakenunknown": "0", "owner": "134269399@N04", "id": "29001791664", "dateupload": "1473671916"}, {"isfamily": 0, "width_m": "500", "datetakengranularity": "0", "farm": 9, "height_m": "333", "title": "cat's", "secret": "30b035bbf8", "server": "8807", "datetaken": "2016-06-08 15:53:47", "isfriend": 0, "url_m": "https://farm9.staticflickr.com/8807/29337331380_30b035bbf8.jpg", "ispublic": 1, "datetakenunknown": "0", "owner": "134269399@N04", "id": "29337331380", "dateupload": "1473671916"}, {"isfamily": 0, "width_m": "333", "datetakengranularity": "0", "farm": 9, "height_m": "500", "title": "_MG_1464", "secret": "85263502e5", "server": "8886", "datetaken": "2016-08-09 19:32:40", "isfriend": 0, "url_m": "https://farm9.staticflickr.com/8886/28778312962_85263502e5.jpg", "ispublic": 1, "datetakenunknown": "0", "owner": "143353928@N02", "id": "28778312962", "dateupload": "1470796953"}, {"isfamily": 0, "width_m": "500", "datetakengranularity": "0", "farm": 9, "height_m": "333", "title": "_MG_1456", "secret": "8af2431407", "server": "8277", "datetaken": "2016-08-09 18:47:55", "isfriend": 0, "url_m": "https://farm9.staticflickr.com/8277/28807585471_8af2431407.jpg", "ispublic": 1, "datetakenunknown": "0", "owner": "143353928@N02", "id": "28807585471", "dateupload": "1470796901"}, {"isfamily": 0, "width_m": "500", "datetakengranularity": "0", "farm": 9, "height_m": "333", "title": "_MG_1465", "secret": "1bf8dfd4cb", "server": "8549", "datetaken": "2016-08-09 19:37:34", "isfriend": 0, "url_m": "https://farm9.staticflickr.com/8549/28267811573_1bf8dfd4cb.jpg", "ispublic": 1, "datetakenunknown": "0", "owner": "143353928@N02", "id": "28267811573", "dateupload": "1470796849"}, {"isfamily": 0, "width_m": "500", "datetakengranularity": "0", "farm": 8, "height_m": "333", "title": "dxoP6290442", "secret": "362d10cd1d", "server": "7779", "datetaken": "2016-06-29 21:13:20", "isfriend": 0, "url_m": "https://farm8.staticflickr.com/7779/27909428023_362d10cd1d.jpg", "ispublic": 1, "datetakenunknown": "0", "owner": "130421523@N02", "id": "27909428023", "dateupload": "1469400821"}, {"isfamily": 0, "width_m": "333", "datetakengranularity": "0", "farm": 9, "height_m": "500", "title": "dxoP6290374", "secret": "0dbd93667c", "server": "8485", "datetaken": "2016-06-29 20:34:50", "isfriend": 0, "url_m": "https://farm9.staticflickr.com/8485/28445592681_0dbd93667c.jpg", "ispublic": 1, "datetakenunknown": "0", "owner": "130421523@N02", "id": "28445592681", "dateupload": "1469394653"}, {"isfamily": 0, "width_m": "500", "datetakengranularity": "0", "farm": 8, "height_m": "281", "title": "dxoP6290449", "secret": "d1f39c6ba1", "server": "7753", "datetaken": "2016-06-29 21:27:02", "isfriend": 0, "url_m": "https://farm8.staticflickr.com/7753/27907567303_d1f39c6ba1.jpg", "ispublic": 1, "datetakenunknown": "0", "owner": "130421523@N02", "id": "27907567303", "dateupload": "1469394654"}, {"isfamily": 0, "width_m": "500", "datetakengranularity": "0", "farm": 8, "height_m": "281", "title": "dxoP6290470", "secret": "452f9efc2a", "server": "7577", "datetaken": "2016-06-29 21:47:01", "isfriend": 0, "url_m": "https://farm8.staticflickr.com/7577/28239666330_452f9efc2a.jpg", "ispublic": 1, "datetakenunknown": "0", "owner": "130421523@N02", "id": "28239666330", "dateupload": "1469394654"}, {"isfamily": 0, "width_m": "500", "datetakengranularity": "0", "farm": 9, "height_m": "281", "title": "dxoP6290481", "secret": "a6724ab3ee", "server": "8893", "datetaken": "2016-06-29 21:51:42", "isfriend": 0, "url_m": "https://farm9.staticflickr.com/8893/28523244575_a6724ab3ee.jpg", "ispublic": 1, "datetakenunknown": "0", "owner": "130421523@N02", "id": "28523244575", "dateupload": "1469394654"}, {"isfamily": 0, "width_m": "500", "datetakengranularity": "0", "farm": 9, "height_m": "500", "title": "dxoP6290484", "secret": "c6f94a65ea", "server": "8860", "datetaken": "2016-06-29 21:52:30", "isfriend": 0, "url_m": "https://farm9.staticflickr.com/8860/27907564273_c6f94a65ea.jpg", "ispublic": 1, "datetakenunknown": "0", "owner": "130421523@N02", "id": "27907564273", "dateupload": "1469394655"}, {"isfamily": 0, "width_m": "500", "datetakengranularity": "0", "farm": 9, "height_m": "375", "title": "dxoP6300603", "secret": "314cfc6413", "server": "8706", "datetaken": "2016-06-30 15:44:03", "isfriend": 0, "url_m": "https://farm9.staticflickr.com/8706/28445555891_314cfc6413.jpg", "ispublic": 1, "datetakenunknown": "0", "owner": "130421523@N02", "id": "28445555891", "dateupload": "1469394655"}, {"isfamily": 0, "width_m": "500", "datetakengranularity": "0", "farm": 9, "height_m": "333", "title": "dxoP6300634", "secret": "706b600723", "server": "8649", "datetaken": "2016-06-30 16:16:48", "isfriend": 0, "url_m": "https://farm9.staticflickr.com/8649/28417540932_706b600723.jpg", "ispublic": 1, "datetakenunknown": "0", "owner": "130421523@N02", "id": "28417540932", "dateupload": "1469394656"}, {"isfamily": 0, "width_m": "500", "datetakengranularity": "0", "farm": 9, "height_m": "281", "title": "dxoP6300640", "secret": "01caaa1e53", "server": "8801", "datetaken": "2016-06-30 16:18:47", "isfriend": 0, "url_m": "https://farm9.staticflickr.com/8801/27906791474_01caaa1e53.jpg", "ispublic": 1, "datetakenunknown": "0", "owner": "130421523@N02", "id": "27906791474", "dateupload": "1469394657"}], "pages": 50, "total": "989", "page": 1, "perpage": 20}, "stat": "ok"}