{"photos": {"photo": [{"isfamily": 0, "url_z": "https://farm9.staticflickr.com/8016/29618663245_4e85d1f247_z.jpg", "datetakengranularity": 0, "farm": 9, "datetakenunknown": "1", "ispublic": 1, "server": "8016", "datetaken": "2016-09-11 20:25:45", "isfriend": 0, "secret": "4e85d1f247", "tags": "mrofilms valparaguayo valparaiso valpo cerro concepcion noche", "width_z": "640", "owner": "25832471@N03", "title": "Barco in la street", "id": "29618663245", "height_z": "361"}, {"isfamily": 0, "url_z": "https://farm9.staticflickr.com/8303/29198592260_397489df58_z.jpg", "datetakengranularity": "0", "farm": 9, "datetakenunknown": "0", "ispublic": 1, "server": "8303", "datetaken": "2016-09-02 19:34:50", "isfriend": 0, "secret": "397489df58", "tags": "valpara\u00edso valparaiso chile night lights cerro hil hill luces nocturna destellos", "width_z": "640", "owner": "143372513@N07", "title": "OCV-Valpo01", "id": "29198592260", "height_z": "427"}, {"isfamily": 0, "url_z": "https://farm9.staticflickr.com/8643/28266964944_ed02c00e6b_z.jpg", "datetakengranularity": "0", "farm": 9, "datetakenunknown": "0", "ispublic": 1, "server": "8643", "datetaken": "2016-08-07 18:06:14", "isfriend": 0, "secret": "ed02c00e6b", "tags": "valparaiso cerro alegre arquitectura", "width_z": "480", "owner": "99074533@N08", "title": "in het midden", "id": "28266964944", "height_z": "640"}, {"isfamily": 0, "url_z": "https://farm9.staticflickr.com/8677/28221886814_3d1e08670d_z.jpg", "datetakengranularity": "0", "farm": 9, "datetakenunknown": "0", "ispublic": 1, "server": "8677", "datetaken": "2016-08-06 18:57:03", "isfriend": 0, "secret": "3d1e08670d", "tags": "mrofilms valparaguayo valparaiso valpo cerro polanco mural", "width_z": "640", "owner": "25832471@N03", "title": "Polanco", "id": "28221886814", "height_z": "426"}, {"isfamily": 0, "url_z": "https://farm8.staticflickr.com/7576/28220139394_da867b7a0f_z.jpg", "datetakengranularity": 0, "farm": 8, "datetakenunknown": "1", "ispublic": 1, "server": "7576", "datetaken": "2016-08-07 18:42:53", "isfriend": 0, "secret": "da867b7a0f", "tags": "valparaiso chile cile suramerica sudamerica latinoamerica cerro", "width_z": "640", "owner": "130654031@N08", "title": "Valparaiso", "id": "28220139394", "height_z": "425"}, {"isfamily": 0, "url_z": "https://farm9.staticflickr.com/8565/28717168521_33b0ebe700_z.jpg", "datetakengranularity": 0, "farm": 9, "datetakenunknown": "1", "ispublic": 1, "server": "8565", "datetaken": "2016-07-24 11:13:47", "isfriend": 0, "secret": "33b0ebe700", "tags": "valparaguayo valparaiso valpo cerro baron", "width_z": "640", "owner": "25832471@N03", "title": "Zentono", "id": "28717168521", "height_z": "144"}, {"isfamily": 0, "url_z": "https://farm9.staticflickr.com/8629/28389549746_48cc28e2c2_z.jpg", "datetakengranularity": "0", "farm": 9, "datetakenunknown": "0", "ispublic": 1, "server": "8629", "datetaken": "2016-07-16 17:49:09", "isfriend": 0, "secret": "48cc28e2c2", "tags": "valparaiso valpo puerto cerro artilleria chile southamerica", "width_z": "640", "owner": "142695430@N05", "title": "Valpara\u00edso", "id": "28389549746", "height_z": "427"}, {"isfamily": 0, "url_z": "https://farm9.staticflickr.com/8540/27787381003_2149fa057c_z.jpg", "datetakengranularity": "0", "farm": 9, "datetakenunknown": "0", "ispublic": 1, "server": "8540", "datetaken": "2016-07-17 10:37:16", "isfriend": 0, "secret": "2149fa057c", "tags": "valparaiso valpo chile cerro alegre pasaje galvez street photography", "width_z": "640", "owner": "142695430@N05", "title": "Streets of Valpara\u00edso", "id": "27787381003", "height_z": "361"}, {"isfamily": 0, "url_z": "https://farm9.staticflickr.com/8761/27785562784_e6d30f603c_z.jpg", "datetakengranularity": "0", "farm": 9, "datetakenunknown": "0", "ispublic": 1, "server": "8761", "datetaken": "2016-07-17 10:43:50", "isfriend": 0, "secret": "e6d30f603c", "tags": "valparaiso chile puerto paseo galvez street photography valpo cerro alegre", "width_z": "427", "owner": "142695430@N05", "title": "Streets of Valpara\u00edso", "id": "27785562784", "height_z": "640"}, {"isfamily": 0, "url_z": "https://farm9.staticflickr.com/8021/28272284022_68ae5df0bb_z.jpg", "datetakengranularity": 0, "farm": 9, "datetakenunknown": "1", "ispublic": 1, "server": "8021", "datetaken": "2016-05-21 12:59:17", "isfriend": 0, "secret": "68ae5df0bb", "tags": "valparaiso cerro valpo larrain valparaguayo mrofilms", "width_z": "640", "owner": "25832471@N03", "title": "Cerro Larrain", "id": "28272284022", "height_z": "189"}, {"isfamily": 0, "url_z": "https://farm9.staticflickr.com/8896/28074613560_937022a678_z.jpg", "datetakengranularity": "0", "farm": 9, "datetakenunknown": "0", "ispublic": 1, "server": "8896", "datetaken": "2016-07-15 14:53:33", "isfriend": 0, "secret": "937022a678", "tags": "valparaiso cerro yungay ecomapu tourlibrevalparaiso walkingtourvalparaiso valparaisoteamo valparaisofreetour", "width_z": "640", "owner": "88071289@N03", "title": "Cerro Yungay, Valpara\u00edso Chile", "id": "28074613560", "height_z": "480"}, {"isfamily": 0, "url_z": "https://farm9.staticflickr.com/8583/28177582176_1ed65c42cd_z.jpg", "datetakengranularity": "0", "farm": 9, "datetakenunknown": "0", "ispublic": 1, "server": "8583", "datetaken": "2016-07-09 17:50:31", "isfriend": 0, "secret": "1ed65c42cd", "tags": "chile light sky people streets bus art cars colors sign night port buildings dark landscape puerto lights valparaiso photo calle nikon mural colorful arte hill paisaje hills paseo cerro autos farol cerros brilliant rookie skycrapers mirador cartel shinning valpo baldosas atkinson principiante gervasoni d5200", "width_z": "640", "owner": "78058225@N08", "title": "DSC_0085", "id": "28177582176", "height_z": "427"}, {"isfamily": 0, "url_z": "https://farm9.staticflickr.com/8692/27590338394_dd3bae5daa_z.jpg", "datetakengranularity": 0, "farm": 9, "datetakenunknown": "1", "ispublic": 1, "server": "8692", "datetaken": "2016-07-09 19:29:02", "isfriend": 0, "secret": "dd3bae5daa", "tags": "chile valparaiso playa cerro valpo", "width_z": "640", "owner": "137417825@N06", "title": "cerro", "id": "27590338394", "height_z": "427"}, {"isfamily": 0, "url_z": "https://farm8.staticflickr.com/7516/27993283821_b4cd4d3a10_z.jpg", "datetakengranularity": "0", "farm": 8, "datetakenunknown": "0", "ispublic": 1, "server": "7516", "datetaken": "2015-11-28 18:40:42", "isfriend": 0, "secret": "b4cd4d3a10", "tags": "chile color primavera valparaiso casa calle edificios edificio iglesia ciudad cerro casas valpara\u00edso valpo cerroconcepci\u00f3n patrimoniodelahumanidad ascensorreinavictoria regi\u00f3ndevalpara\u00edso cerroc\u00e1rcel ciudadpatrimoniodelahumanidad cerropante\u00f3n cerrobellavista plazavictoria plazabol\u00edvar ascensoresp\u00edritusanto cerrosdevalpara\u00edso subidaecuador puertodevalpara\u00edso cerrolaloma plazuelaecuador cerroyungay cerroflorida cerrosanjuandedios ciudaddevalpara\u00edso granvalpara\u00edso ascensoresdevalpara\u00edso municipalidaddevalpara\u00edso provinciadevalpara\u00edso comunadevalpara\u00edso municipiodevalpara\u00edso ilustremunicipalidaddevalpara\u00edso museoacieloabiertodevalpara\u00edso cementeriodisidentes", "width_z": "640", "owner": "34576387@N05", "title": "Valpara\u00edso", "id": "27993283821", "height_z": "480"}, {"isfamily": 0, "url_z": "https://farm8.staticflickr.com/7422/27333367233_d8d325f51e_z.jpg", "datetakengranularity": "0", "farm": 8, "datetakenunknown": "0", "ispublic": 1, "server": "7422", "datetaken": "2016-06-27 18:49:14", "isfriend": 0, "secret": "d8d325f51e", "tags": "chile film analog canon puerto valparaiso mural flickr kodak ciudad cerro latinoamerica analogue pushed canonae1 portra valpara\u00edso canonae1program 50mmf18 portra400 antig\u00fcedades cerroalegre analoge analogo pushed800 forzado800", "width_z": "640", "owner": "13714908@N00", "title": "Desde los cerros", "id": "27333367233", "height_z": "424"}, {"isfamily": 0, "url_z": "https://farm8.staticflickr.com/7365/27276219464_0643fc4e28_z.jpg", "datetakengranularity": 0, "farm": 8, "datetakenunknown": "1", "ispublic": 1, "server": "7365", "datetaken": "2016-05-21 12:54:52", "isfriend": 0, "secret": "0643fc4e28", "tags": "valparaiso cerro ascensor baron valpo valparaguayo mrofilms ascesnor", "width_z": "640", "owner": "25832471@N03", "title": "Ascensor Bar\u00f3n", "id": "27276219464", "height_z": "196"}, {"isfamily": 0, "url_z": "https://farm8.staticflickr.com/7375/27411260572_dec2e5ec49_z.jpg", "datetakengranularity": "0", "farm": 8, "datetakenunknown": "0", "ispublic": 1, "server": "7375", "datetaken": "2016-06-05 14:09:38", "isfriend": 0, "secret": "dec2e5ec49", "tags": "chile regi\u00f3nmetropolitana region valparaiso metropolitana landscapes cerro el roble", "width_z": "640", "owner": "59893415@N05", "title": "Cerro el Roble", "id": "27411260572", "height_z": "396"}, {"isfamily": 0, "url_z": "https://farm8.staticflickr.com/7235/27374763881_8a26ca9575_z.jpg", "datetakengranularity": 0, "farm": 8, "datetakenunknown": "1", "ispublic": 1, "server": "7235", "datetaken": "2016-05-21 13:04:22", "isfriend": 0, "secret": "8a26ca9575", "tags": "valparaiso cerro skate delicias valpo valparaguayo mrofilms", "width_z": "640", "owner": "25832471@N03", "title": "Cerro Delicias", "id": "27374763881", "height_z": "198"}, {"isfamily": 0, "url_z": "https://farm8.staticflickr.com/7225/26775582653_28d7aa9ee1_z.jpg", "datetakengranularity": "0", "farm": 8, "datetakenunknown": "0", "ispublic": 1, "server": "7225", "datetaken": "2016-05-22 01:33:56", "isfriend": 0, "secret": "28d7aa9ee1", "tags": "chile autumn santiago mountains southamerica canon landscape hojas valparaiso rojo paisaje cerro oto\u00f1o sudamerica roble", "width_z": "640", "owner": "139150777@N06", "title": "Robledal en Cerro el Roble, Regi\u00f3n de Valpara\u00edso, Chile", "id": "26775582653", "height_z": "427"}, {"isfamily": 0, "url_z": "https://farm8.staticflickr.com/7390/27105539450_65b8cb7917_z.jpg", "datetakengranularity": "0", "farm": 8, "datetakenunknown": "0", "ispublic": 1, "server": "7390", "datetaken": "2016-05-31 12:45:30", "isfriend": 0, "secret": "65b8cb7917", "tags": "chile street city people verde colors stairs walking valparaiso purple cerro escaleras 2016", "width_z": "640", "owner": "76750925@N08", "title": "", "id": "27105539450", "height_z": "427"}, {"isfamily": 0, "url_z": "https://farm8.staticflickr.com/7651/27228987022_f7f7d4912c_z.jpg", "datetakengranularity": 0, "farm": 8, "datetakenunknown": "1", "ispublic": 1, "server": "7651", "datetaken": "2016-05-29 00:12:56", "isfriend": 0, "secret": "f7f7d4912c", "tags": "chile houses costa mountain valparaiso colores cerro monta\u00f1a casas cerroalegre", "width_z": "640", "owner": "47748034@N04", "title": "Valparaiso", "id": "27228987022", "height_z": "445"}, {"isfamily": 0, "url_z": "https://farm8.staticflickr.com/7080/27255895741_2e9721b5e4_z.jpg", "datetakengranularity": 0, "farm": 8, "datetakenunknown": "1", "ispublic": 1, "server": "7080", "datetaken": "2016-05-29 00:13:14", "isfriend": 0, "secret": "2e9721b5e4", "tags": "chile houses costa mountain valparaiso colores cerro monta\u00f1a casas cerroalegre", "width_z": "640", "owner": "47748034@N04", "title": "Valparaiso", "id": "27255895741", "height_z": "427"}, {"isfamily": 0, "url_z": "https://farm8.staticflickr.com/7390/27022082720_ec3dd1a761_z.jpg", "datetakengranularity": 0, "farm": 8, "datetakenunknown": "1", "ispublic": 1, "server": "7390", "datetaken": "2016-05-21 13:11:53", "isfriend": 0, "secret": "ec3dd1a761", "tags": "valparaiso cerro skate valpo valparaguayo mrofilms", "width_z": "640", "owner": "25832471@N03", "title": "Perspectivas porte\u00f1as", "id": "27022082720", "height_z": "285"}, {"isfamily": 0, "url_z": "https://farm8.staticflickr.com/7424/27109444011_459f25cca7_z.jpg", "datetakengranularity": "0", "farm": 8, "datetakenunknown": "0", "ispublic": 1, "server": "7424", "datetaken": "2016-05-22 10:45:52", "isfriend": 0, "secret": "459f25cca7", "tags": "valparaiso cerro ascensor baron", "width_z": "360", "owner": "77705700@N00", "title": "#ascensor #cerro #baron #valparaiso", "id": "27109444011", "height_z": "640"}, {"isfamily": 0, "url_z": "https://farm8.staticflickr.com/7525/27144902366_4f5719d1ae_z.jpg", "datetakengranularity": "0", "farm": 8, "datetakenunknown": "0", "ispublic": 1, "server": "7525", "datetaken": "2016-05-22 10:46:04", "isfriend": 0, "secret": "4f5719d1ae", "tags": "valparaiso cerro ascensor baron", "width_z": "360", "owner": "77705700@N00", "title": "#ascensor #cerro #baron #valparaiso", "id": "27144902366", "height_z": "640"}, {"isfamily": 0, "url_z": "https://farm8.staticflickr.com/7728/27082824122_521924a48a_z.jpg", "datetakengranularity": "0", "farm": 8, "datetakenunknown": "0", "ispublic": 1, "server": "7728", "datetaken": "2016-05-22 10:46:11", "isfriend": 0, "secret": "521924a48a", "tags": "valparaiso cerro ascensor baron", "width_z": "360", "owner": "77705700@N00", "title": "#ascensor #cerro #baron #valparaiso", "id": "27082824122", "height_z": "640"}, {"isfamily": 0, "url_z": "https://farm8.staticflickr.com/7757/26869135221_bbf585611e_z.jpg", "datetakengranularity": "0", "farm": 8, "datetakenunknown": "0", "ispublic": 1, "server": "7757", "datetaken": "2016-05-08 17:49:02", "isfriend": 0, "secret": "bbf585611e", "tags": "chile travel viaje sun sol beach ex valparaiso botes dance day candy sunday centro esculturas playa dia colores mothers cerro alegre valpara\u00edso flamenco cultura mothersday madre cultural edit dulces carcel cerroalegre fz150 lumixfz150", "width_z": "640", "owner": "141782850@N07", "title": "Esculturas Centro Cultural de Valpara\u00edso, Ex C\u00e1rcel", "id": "26869135221", "height_z": "359"}, {"isfamily": 0, "url_z": "https://farm8.staticflickr.com/7341/26320307574_2debf2aa51_z.jpg", "datetakengranularity": "0", "farm": 8, "datetakenunknown": "0", "ispublic": 1, "server": "7341", "datetaken": "2016-04-25 16:33:16", "isfriend": 0, "secret": "2debf2aa51", "tags": "blue sky canon landscape photography valparaiso colours photographer paisaje colores cerro fotografia ascensor valpo", "width_z": "640", "owner": "141709869@N03", "title": "Valpo", "id": "26320307574", "height_z": "426"}, {"isfamily": 0, "url_z": "https://farm8.staticflickr.com/7279/26209744344_8a88837a17_z.jpg", "datetakengranularity": "0", "farm": 8, "datetakenunknown": "0", "ispublic": 1, "server": "7279", "datetaken": "2016-04-23 11:16:58", "isfriend": 0, "secret": "8a88837a17", "tags": "world chile camera blue houses dog white verde green blanco face animal azul hydrant lens fire photography prime valparaiso reflex cafe nikon df flickr colours shot candid hill cara bonito creative yawn going down scene hobby colores best perro explore amarillo cerro eyed 24mm moment lovely fotografia tap nikkor dslr passage cemento left casas lente 58mm mundo collecting decisive grifo colecci\u00f3n concret bostezo concreto pasaje guti adoqu\u00edn flickriver nikondf", "width_z": "426", "owner": "136761463@N05", "title": "Yaaawwwwwwnnn", "id": "26209744344", "height_z": "640"}, {"isfamily": 0, "url_z": "https://farm8.staticflickr.com/7185/26542645640_5de3b8c88b_z.jpg", "datetakengranularity": "0", "farm": 8, "datetakenunknown": "0", "ispublic": 1, "server": "7185", "datetaken": "2016-04-23 11:27:04", "isfriend": 0, "secret": "5de3b8c88b", "tags": "chile street camera blue urban muro verde green water yellow azul wall hydrant fire photography valparaiso photo calle reflex agua nikon df iron colours grafiti steel hill colores amarillo cerro urbano fotografia tap nikkor dslr passage cemento extinguisher 58mm camara grifo steady acero concret hierro concreto pasaje recto adoqu\u00edn nikondf", "width_z": "426", "owner": "136761463@N05", "title": "Yellow extinguisher", "id": "26542645640", "height_z": "640"}, {"isfamily": 0, "url_z": "https://farm8.staticflickr.com/7384/26542636960_e48d881a82_z.jpg", "datetakengranularity": "0", "farm": 8, "datetakenunknown": "0", "ispublic": 1, "server": "7384", "datetaken": "2016-05-04 09:02:21", "isfriend": 0, "secret": "e48d881a82", "tags": "chile blue houses plants muro verde green blanco smile animal azul wall cat hydrant fire graffiti valparaiso cafe nikon df colours grafiti colores amarillo cerro gato stare sonrisa tap nikkor passage cemento casas 58mm grifo concret concreto macetero pasaje adoqu\u00edn nikondf", "width_z": "640", "owner": "136761463@N05", "title": "A cat and a smile, 189 street", "id": "26542636960", "height_z": "423"}, {"isfamily": 0, "url_z": "https://farm8.staticflickr.com/7415/26778082456_fe4b63ca15_z.jpg", "datetakengranularity": "0", "farm": 8, "datetakenunknown": "0", "ispublic": 1, "server": "7415", "datetaken": "2016-04-29 10:40:54", "isfriend": 0, "secret": "fe4b63ca15", "tags": "chile road street city houses house building buildings valparaiso avenida casa calle edificios gente hill edificio ciudad cerro villa vista oto\u00f1o sight avenue viewpoint casas valpara\u00edso neighbourhood lugar mirador autumm valpo placepeople poblaci\u00f3n avenidabrasil patrimoniodelahumanidad cerroplaceres congresonacional regi\u00f3ndevalpara\u00edso avenidaargentina ciudadpatrimoniodelahumanidad cerropolanco ascensorpolanco cerrobar\u00f3n ascensorbar\u00f3n cerrosdevalpara\u00edso ferialibre avenidaindependencia ascensorlarra\u00edn avenidaespa\u00f1a cerrolarra\u00edn portalvalpara\u00edso avenidacol\u00f3n avenidapedromontt laperladelpac\u00edfico ciudaddevalpara\u00edso granvalpara\u00edso ascensoresdevalpara\u00edso municipalidaddevalpara\u00edso provinciadevalpara\u00edso comunadevalpara\u00edso feriadeavenidaargentina municipiodevalpara\u00edso ilustremunicipalidaddevalpara\u00edso subidasantosossa", "width_z": "640", "owner": "34576387@N05", "title": "Valpara\u00edso", "id": "26778082456", "height_z": "480"}, {"isfamily": 0, "url_z": "https://farm2.staticflickr.com/1522/26131698584_3fabb249f9_z.jpg", "datetakengranularity": "0", "farm": 2, "datetakenunknown": "0", "ispublic": 1, "server": "1522", "datetaken": "2016-04-30 12:42:45", "isfriend": 0, "secret": "3fabb249f9", "tags": "chile leica 35mm valparaiso none sony perro summicron cerro f2 polanco pa\u00f1uelo a7ii", "width_z": "640", "owner": "91297531@N06", "title": "DSC04028", "id": "26131698584", "height_z": "427"}, {"isfamily": 0, "url_z": "https://farm2.staticflickr.com/1670/26097533624_29278f6076_z.jpg", "datetakengranularity": "0", "farm": 2, "datetakenunknown": "0", "ispublic": 1, "server": "1670", "datetaken": "2016-04-28 18:13:33", "isfriend": 0, "secret": "29278f6076", "tags": "chile door camera verde green yellow metal stairs reja valparaiso reflex puerta nikon df gate key closed dof close bokeh pov lock hill entrance rusty chain blocked amarillo cerro concepci\u00f3n entrada block cerrado enter nikkor dslr padlock 58mm locked escaleras llave cerradura cadena oxidado cerroconcepcion c\u00e1mara candado bloqueado isometrico isometrical nikondf", "width_z": "640", "owner": "136761463@N05", "title": "You shall not pass", "id": "26097533624", "height_z": "426"}, {"isfamily": 0, "url_z": "https://farm2.staticflickr.com/1565/25947132213_50ce65ba6c_z.jpg", "datetakengranularity": "0", "farm": 2, "datetakenunknown": "0", "ispublic": 1, "server": "1565", "datetaken": "2016-04-20 17:15:46", "isfriend": 0, "secret": "50ce65ba6c", "tags": "valparaiso cerro valpo cerroplaceres placeres", "width_z": "640", "owner": "130497597@N04", "title": "DSC02198", "id": "25947132213", "height_z": "524"}, {"isfamily": 0, "url_z": "https://farm2.staticflickr.com/1681/25865657143_191ba8cb45_z.jpg", "datetakengranularity": "0", "farm": 2, "datetakenunknown": "0", "ispublic": 1, "server": "1681", "datetaken": "2016-04-16 17:21:40", "isfriend": 0, "secret": "191ba8cb45", "tags": "fog puerto valparaiso cerro niebla baron", "width_z": "427", "owner": "55185214@N03", "title": "Niebla en Valparaiso", "id": "25865657143", "height_z": "640"}, {"isfamily": 0, "url_z": "https://farm2.staticflickr.com/1481/25795446344_77fe6f78f1_z.jpg", "datetakengranularity": "0", "farm": 2, "datetakenunknown": "0", "ispublic": 1, "server": "1481", "datetaken": "2015-10-03 14:57:43", "isfriend": 0, "secret": "77fe6f78f1", "tags": "chile festival valparaiso los cerro placeres miltambores", "width_z": "425", "owner": "140185421@N02", "title": "Tambores x mil", "id": "25795446344", "height_z": "640"}, {"isfamily": 0, "url_z": "https://farm2.staticflickr.com/1662/26202836362_b456500ecf_z.jpg", "datetakengranularity": "0", "farm": 2, "datetakenunknown": "0", "ispublic": 1, "server": "1662", "datetaken": "2015-10-25 16:43:30", "isfriend": 0, "secret": "b456500ecf", "tags": "valparaiso escalera cerro fotografia", "width_z": "640", "owner": "141709869@N03", "title": "Escalera", "id": "26202836362", "height_z": "427"}, {"isfamily": 0, "url_z": "https://farm2.staticflickr.com/1709/26202732402_38bc213f4c_z.jpg", "datetakengranularity": "0", "farm": 2, "datetakenunknown": "0", "ispublic": 1, "server": "1709", "datetaken": "2015-10-25 16:22:52", "isfriend": 0, "secret": "38bc213f4c", "tags": "valparaiso cerro fotografia", "width_z": "427", "owner": "141709869@N03", "title": "Pasaje", "id": "26202732402", "height_z": "640"}, {"isfamily": 0, "url_z": "https://farm2.staticflickr.com/1579/26121636455_987193cea6_z.jpg", "datetakengranularity": "0", "farm": 2, "datetakenunknown": "0", "ispublic": 1, "server": "1579", "datetaken": "2015-07-02 14:36:26", "isfriend": 0, "secret": "987193cea6", "tags": "bike valparaiso calle bicicleta cerro alegre", "width_z": "640", "owner": "135002642@N03", "title": "Usa la bici", "id": "26121636455", "height_z": "375"}, {"isfamily": 0, "url_z": "https://farm2.staticflickr.com/1508/25846896780_58eb2f7043_z.jpg", "datetakengranularity": "0", "farm": 2, "datetakenunknown": "0", "ispublic": 1, "server": "1508", "datetaken": "2016-03-23 17:49:19", "isfriend": 0, "secret": "58eb2f7043", "tags": "canon valparaiso escalera cerro cerros valpara\u00edso escaleras sl1 valpo canonsl1", "width_z": "427", "owner": "110991518@N03", "title": "Sintitulo", "id": "25846896780", "height_z": "640"}, {"isfamily": 0, "url_z": "https://farm2.staticflickr.com/1509/26099727735_af808af0e2_z.jpg", "datetakengranularity": "0", "farm": 2, "datetakenunknown": "0", "ispublic": 1, "server": "1509", "datetaken": "2016-02-12 23:35:46", "isfriend": 0, "secret": "af808af0e2", "tags": "chile street city urban art valparaiso grafitti cerro polanco", "width_z": "640", "owner": "67867746@N07", "title": "Valparaiso Street Art", "id": "26099727735", "height_z": "427"}, {"isfamily": 0, "url_z": "https://farm2.staticflickr.com/1588/25826882020_3a140dca01_z.jpg", "datetakengranularity": "0", "farm": 2, "datetakenunknown": "0", "ispublic": 1, "server": "1588", "datetaken": "2016-02-12 23:35:27", "isfriend": 0, "secret": "3a140dca01", "tags": "chile street city urban art valparaiso grafitti cerro polanco", "width_z": "640", "owner": "67867746@N07", "title": "Valparaiso Street Art", "id": "25826882020", "height_z": "427"}, {"isfamily": 0, "url_z": "https://farm2.staticflickr.com/1698/26033356851_c6d6f4dca3_z.jpg", "datetakengranularity": "0", "farm": 2, "datetakenunknown": "0", "ispublic": 1, "server": "1698", "datetaken": "2016-02-12 23:34:58", "isfriend": 0, "secret": "c6d6f4dca3", "tags": "chile street city urban art valparaiso grafitti cerro polanco", "width_z": "640", "owner": "67867746@N07", "title": "Valparaiso Street Art", "id": "26033356851", "height_z": "427"}, {"isfamily": 0, "url_z": "https://farm9.staticflickr.com/8401/29105359192_ba4316c540_z.jpg", "datetakengranularity": 0, "farm": 9, "datetakenunknown": "1", "ispublic": 1, "server": "8401", "datetaken": "2016-08-07 00:38:49", "isfriend": 0, "secret": "ba4316c540", "tags": "mrofilms valparaguayo valparaiso valpo cerro polanco noche", "width_z": "640", "owner": "25832471@N03", "title": "Polanco", "id": "29105359192", "height_z": "336"}, {"isfamily": 0, "url_z": "https://farm8.staticflickr.com/7284/27594243211_32e58aeb5f_z.jpg", "datetakengranularity": 0, "farm": 8, "datetakenunknown": "1", "ispublic": 1, "server": "7284", "datetaken": "2016-06-12 00:03:58", "isfriend": 0, "secret": "32e58aeb5f", "tags": "night de valparaiso noche san juan cerro dios valpo nocturno valparaguayo mrofilms", "width_z": "640", "owner": "25832471@N03", "title": "San Juan de Dios", "id": "27594243211", "height_z": "299"}, {"isfamily": 0, "url_z": "https://farm2.staticflickr.com/1499/26709672951_76b26df9b2_z.jpg", "datetakengranularity": "0", "farm": 2, "datetakenunknown": "0", "ispublic": 1, "server": "1499", "datetaken": "2016-04-29 16:47:55", "isfriend": 0, "secret": "76b26df9b2", "tags": "chile puerto valparaiso avenida casa calle camino edificio ciudad tienda cerro vista oto\u00f1o valpara\u00edso valpo patrimoniodelahumanidad lasebastiana regi\u00f3ndevalpara\u00edso cerroc\u00e1rcel ciudadpatrimoniodelahumanidad cerrobellavista ascensorflorida cerrosdevalpara\u00edso subidaecuador avenidaalemania cerromonjas cerrolaloma cerromariposas plazamena cerroflorida plazabismark cerrosanjuandedios ascensormonjas laperladelpac\u00edfico ciudaddevalpara\u00edso granvalpara\u00edso ascensoresdevalpara\u00edso ascensormariposas municipalidaddevalpara\u00edso provinciadevalpara\u00edso comunadevalpara\u00edso municipiodevalpara\u00edso ilustremunicipalidaddevalpara\u00edso subidayerbasbuenas", "width_z": "640", "owner": "34576387@N05", "title": "Valpara\u00edso", "id": "26709672951", "height_z": "480"}, {"isfamily": 0, "url_z": "https://farm2.staticflickr.com/1577/26146851384_7cb3b60b8d_z.jpg", "datetakengranularity": "0", "farm": 2, "datetakenunknown": "0", "ispublic": 1, "server": "1577", "datetaken": "2016-04-30 17:19:58", "isfriend": 0, "secret": "7cb3b60b8d", "tags": "windows colors yellow valparaiso doors colores cerro carcel cerrocarcel", "width_z": "640", "owner": "126917946@N04", "title": "Puerta de colores", "id": "26146851384", "height_z": "426"}, {"isfamily": 0, "url_z": "https://farm2.staticflickr.com/1490/26083648153_df03b6c836_z.jpg", "datetakengranularity": "0", "farm": 2, "datetakenunknown": "0", "ispublic": 1, "server": "1490", "datetaken": "2016-02-27 18:57:44", "isfriend": 0, "secret": "df03b6c836", "tags": "valparaiso cerro alegre el peral estatuas bohemia", "width_z": "427", "owner": "57771296@N05", "title": "El Peral", "id": "26083648153", "height_z": "640"}, {"isfamily": 0, "url_z": "https://farm2.staticflickr.com/1640/25871986874_3ae9845659_z.jpg", "datetakengranularity": "0", "farm": 2, "datetakenunknown": "0", "ispublic": 1, "server": "1640", "datetaken": "2016-04-16 16:05:33", "isfriend": 0, "secret": "3ae9845659", "tags": "chile trees camp clouds valparaiso arboles cloudy hill v cerro campo nublado region cerros vi\u00f1adelmar limache vregion countryide", "width_z": "640", "owner": "75353693@N02", "title": "Limache", "id": "25871986874", "height_z": "427"}], "pages": 118, "total": "5863", "page": 1, "perpage": 50}, "stat": "ok"}