{"photos": {"photo": [{"isfamily": 0, "width_m": "500", "datetakengranularity": "0", "farm": 9, "height_m": "282", "title": "Gran Daneses", "secret": "fbd9352262", "server": "8614", "datetaken": "2016-04-23 18:55:05", "isfriend": 0, "url_m": "https://farm9.staticflickr.com/8614/28212025033_fbd9352262.jpg", "ispublic": 1, "datetakenunknown": "0", "owner": "66425761@N07", "id": "28212025033", "dateupload": "1470587149"}, {"isfamily": 0, "width_m": "500", "datetakengranularity": "0", "farm": 8, "height_m": "333", "title": "Perros de Valpo", "secret": "4af0425db8", "server": "7635", "datetaken": "2016-07-03 19:18:36", "isfriend": 0, "url_m": "https://farm8.staticflickr.com/7635/27902725930_4af0425db8.jpg", "ispublic": 1, "datetakenunknown": "0", "owner": "94985748@N02", "id": "27902725930", "dateupload": "1468030072"}, {"isfamily": 0, "width_m": "500", "datetakengranularity": "0", "farm": 9, "height_m": "500", "title": "We named her Mabel", "secret": "ffeab21a09", "server": "8409", "datetaken": "2016-08-13 11:03:36", "isfriend": 0, "url_m": "https://farm9.staticflickr.com/8409/28855636220_ffeab21a09.jpg", "ispublic": 1, "datetakenunknown": "0", "owner": "36209700@N02", "id": "28855636220", "dateupload": "1471824300"}, {"isfamily": 0, "width_m": "375", "datetakengranularity": "0", "farm": 9, "height_m": "500", "title": "Valparaiso dogs", "secret": "0701bd64db", "server": "8423", "datetaken": "2016-08-13 10:58:06", "isfriend": 0, "url_m": "https://farm9.staticflickr.com/8423/29142919365_0701bd64db.jpg", "ispublic": 1, "datetakenunknown": "0", "owner": "36209700@N02", "id": "29142919365", "dateupload": "1471824299"}, {"isfamily": 0, "width_m": "375", "datetakengranularity": "0", "farm": 9, "height_m": "500", "title": "Valparaiso golden retriever", "secret": "02f3666a0f", "server": "8552", "datetaken": "2016-08-13 10:17:49", "isfriend": 0, "url_m": "https://farm9.staticflickr.com/8552/28855634910_02f3666a0f.jpg", "ispublic": 1, "datetakenunknown": "0", "owner": "36209700@N02", "id": "28855634910", "dateupload": "1471824299"}, {"isfamily": 0, "width_m": "500", "datetakengranularity": "0", "farm": 9, "height_m": "500", "title": "Valparaiso golden retriever", "secret": "76ea0287d4", "server": "8066", "datetaken": "2016-08-13 10:17:57", "isfriend": 0, "url_m": "https://farm9.staticflickr.com/8066/29037507122_76ea0287d4.jpg", "ispublic": 1, "datetakenunknown": "0", "owner": "36209700@N02", "id": "29037507122", "dateupload": "1471824299"}, {"isfamily": 0, "width_m": "500", "datetakengranularity": "0", "farm": 9, "height_m": "500", "title": "Valparaiso dog", "secret": "c0a2e0ba95", "server": "8635", "datetaken": "2016-08-13 11:11:17", "isfriend": 0, "url_m": "https://farm9.staticflickr.com/8635/28521211174_c0a2e0ba95.jpg", "ispublic": 1, "datetakenunknown": "0", "owner": "36209700@N02", "id": "28521211174", "dateupload": "1471824298"}, {"isfamily": 0, "width_m": "500", "datetakengranularity": "0", "farm": 9, "height_m": "500", "title": "Valparaiso dogs", "secret": "645d8de903", "server": "8292", "datetaken": "2016-08-13 11:02:38", "isfriend": 0, "url_m": "https://farm9.staticflickr.com/8292/29142890795_645d8de903.jpg", "ispublic": 1, "datetakenunknown": "0", "owner": "36209700@N02", "id": "29142890795", "dateupload": "1471824297"}, {"isfamily": 0, "width_m": "500", "datetakengranularity": "0", "farm": 9, "height_m": "333", "title": "Descansando/Resting", "secret": "c656189fbd", "server": "8706", "datetaken": "2016-03-24 11:18:44", "isfriend": 0, "url_m": "https://farm9.staticflickr.com/8706/27917075803_c656189fbd.jpg", "ispublic": 1, "datetakenunknown": "0", "owner": "144680508@N06", "id": "27917075803", "dateupload": "1469428337"}, {"isfamily": 0, "width_m": "500", "datetakengranularity": "0", "farm": 1, "height_m": "375", "title": "Cerro Concepci\u00f3n", "secret": "892f03792a", "server": "666", "datetaken": "2007-08-09 01:43:32", "isfriend": 0, "url_m": "https://farm1.staticflickr.com/666/23355896419_892f03792a.jpg", "ispublic": 1, "datetakenunknown": "0", "owner": "53374444@N06", "id": "23355896419", "dateupload": "1450023864"}, {"isfamily": 0, "width_m": "500", "datetakengranularity": "0", "farm": 6, "height_m": "375", "title": "Cerro Concepci\u00f3n", "secret": "c78c789674", "server": "5767", "datetaken": "2007-08-09 01:44:05", "isfriend": 0, "url_m": "https://farm6.staticflickr.com/5767/23641300591_c78c789674.jpg", "ispublic": 1, "datetakenunknown": "0", "owner": "53374444@N06", "id": "23641300591", "dateupload": "1450023864"}, {"isfamily": 0, "width_m": "375", "datetakengranularity": "0", "farm": 6, "height_m": "500", "title": "Cerro Concepci\u00f3n", "secret": "7c4a80daac", "server": "5776", "datetaken": "2007-08-09 01:44:35", "isfriend": 0, "url_m": "https://farm6.staticflickr.com/5776/23428141240_7c4a80daac.jpg", "ispublic": 1, "datetakenunknown": "0", "owner": "53374444@N06", "id": "23428141240", "dateupload": "1450023865"}, {"isfamily": 0, "width_m": "375", "datetakengranularity": "0", "farm": 6, "height_m": "500", "title": "Cerro Concepci\u00f3n", "secret": "3339488fcb", "server": "5691", "datetaken": "2007-08-09 01:45:21", "isfriend": 0, "url_m": "https://farm6.staticflickr.com/5691/23428140640_3339488fcb.jpg", "ispublic": 1, "datetakenunknown": "0", "owner": "53374444@N06", "id": "23428140640", "dateupload": "1450023866"}, {"isfamily": 0, "width_m": "500", "datetakengranularity": "0", "farm": 6, "height_m": "375", "title": "Cerro Concepci\u00f3n", "secret": "bea8561a15", "server": "5781", "datetaken": "2007-08-09 01:45:34", "isfriend": 0, "url_m": "https://farm6.staticflickr.com/5781/23095720734_bea8561a15.jpg", "ispublic": 1, "datetakenunknown": "0", "owner": "53374444@N06", "id": "23095720734", "dateupload": "1450023867"}, {"isfamily": 0, "width_m": "500", "datetakengranularity": "0", "farm": 1, "height_m": "375", "title": "Cerro Concepci\u00f3n", "secret": "26b708c4b0", "server": "591", "datetaken": "2007-08-09 01:45:50", "isfriend": 0, "url_m": "https://farm1.staticflickr.com/591/23723820735_26b708c4b0.jpg", "ispublic": 1, "datetakenunknown": "0", "owner": "53374444@N06", "id": "23723820735", "dateupload": "1450023867"}, {"isfamily": 0, "width_m": "500", "datetakengranularity": "0", "farm": 6, "height_m": "375", "title": "Cerro Concepci\u00f3n", "secret": "3152e2ff30", "server": "5707", "datetaken": "2007-08-09 01:46:00", "isfriend": 0, "url_m": "https://farm6.staticflickr.com/5707/23355892279_3152e2ff30.jpg", "ispublic": 1, "datetakenunknown": "0", "owner": "53374444@N06", "id": "23355892279", "dateupload": "1450023868"}, {"isfamily": 0, "width_m": "500", "datetakengranularity": "0", "farm": 1, "height_m": "375", "title": "Cerro Concepci\u00f3n", "secret": "90888858dd", "server": "650", "datetaken": "2007-08-09 01:46:35", "isfriend": 0, "url_m": "https://farm1.staticflickr.com/650/23615333842_90888858dd.jpg", "ispublic": 1, "datetakenunknown": "0", "owner": "53374444@N06", "id": "23615333842", "dateupload": "1450023868"}, {"isfamily": 0, "width_m": "500", "datetakengranularity": "0", "farm": 1, "height_m": "375", "title": "Cerro Concepci\u00f3n", "secret": "ec1b3af5d4", "server": "767", "datetaken": "2007-08-09 01:47:01", "isfriend": 0, "url_m": "https://farm1.staticflickr.com/767/23428136970_ec1b3af5d4.jpg", "ispublic": 1, "datetakenunknown": "0", "owner": "53374444@N06", "id": "23428136970", "dateupload": "1450023869"}, {"isfamily": 0, "width_m": "375", "datetakengranularity": "0", "farm": 1, "height_m": "500", "title": "Cerro Concepci\u00f3n", "secret": "7cb0086544", "server": "658", "datetaken": "2007-08-09 02:40:04", "isfriend": 0, "url_m": "https://farm1.staticflickr.com/658/23615332552_7cb0086544.jpg", "ispublic": 1, "datetakenunknown": "0", "owner": "53374444@N06", "id": "23615332552", "dateupload": "1450023869"}, {"isfamily": 0, "width_m": "500", "datetakengranularity": "0", "farm": 1, "height_m": "375", "title": "Cerro Concepci\u00f3n", "secret": "b3c3f1ef1c", "server": "658", "datetaken": "2007-08-09 02:41:26", "isfriend": 0, "url_m": "https://farm1.staticflickr.com/658/23095716324_b3c3f1ef1c.jpg", "ispublic": 1, "datetakenunknown": "0", "owner": "53374444@N06", "id": "23095716324", "dateupload": "1450023870"}], "pages": 55, "total": "1089", "page": 1, "perpage": 20}, "stat": "ok"}