{"photos": {"photo": [{"isfamily": 0, "url_z": "https://farm9.staticflickr.com/8407/28174943050_eac3cb5d45_z.jpg", "datetakengranularity": "0", "farm": 9, "datetakenunknown": "0", "ispublic": 1, "server": "8407", "datetaken": "2016-07-18 09:14:26", "isfriend": 0, "secret": "eac3cb5d45", "tags": "aves bird birds chile nikon ave concon flying gaviota gaviotadominicana gull naturaleza nature seagull wildlife valparaiso", "width_z": "640", "owner": "41130674@N04", "title": "Dominicana en invierno.", "id": "28174943050", "height_z": "427"}, {"isfamily": 0, "url_z": "https://farm9.staticflickr.com/8703/28174942920_7e102dab65_z.jpg", "datetakengranularity": "0", "farm": 9, "datetakenunknown": "0", "ispublic": 1, "server": "8703", "datetaken": "2016-07-18 09:14:26", "isfriend": 0, "secret": "7e102dab65", "tags": "aves bird birds chile nikon ave concon flying gaviota gaviotadominicana gull naturaleza nature seagull wildlife valparaiso", "width_z": "640", "owner": "41130674@N04", "title": "Dominicana en invierno.", "id": "28174942920", "height_z": "427"}, {"isfamily": 0, "url_z": "https://farm8.staticflickr.com/7034/26912448911_0d360af804_z.jpg", "datetakengranularity": 0, "farm": 8, "datetakenunknown": "1", "ispublic": 1, "server": "7034", "datetaken": "2016-05-12 22:47:25", "isfriend": 0, "secret": "0d360af804", "tags": "chile bird valparaiso pelican ave fishingboats pesca pelicano", "width_z": "640", "owner": "8434982@N04", "title": "Ancient Landing", "id": "26912448911", "height_z": "426"}, {"isfamily": 0, "url_z": "https://farm2.staticflickr.com/1443/26039418494_f0857a5814_z.jpg", "datetakengranularity": "0", "farm": 2, "datetakenunknown": "0", "ispublic": 1, "server": "1443", "datetaken": "2016-04-24 19:05:58", "isfriend": 0, "secret": "f0857a5814", "tags": "chile sunset sky cloud bird atardecer valparaiso cloudy ave cielo nubes pajaro villaalemana iphone6", "width_z": "640", "owner": "102634313@N02", "title": "Freedom", "id": "26039418494", "height_z": "360"}, {"isfamily": 0, "url_z": "https://farm2.staticflickr.com/1668/26579632191_76040a34f7_z.jpg", "datetakengranularity": "0", "farm": 2, "datetakenunknown": "0", "ispublic": 1, "server": "1668", "datetaken": "2016-04-24 17:55:33", "isfriend": 0, "secret": "76040a34f7", "tags": "chile sunset sky bird atardecer valparaiso cloudy ave cielo nubes villaalemana iphone6", "width_z": "640", "owner": "102634313@N02", "title": "Freedom", "id": "26579632191", "height_z": "360"}, {"isfamily": 0, "url_z": "https://farm1.staticflickr.com/703/23374991951_2b8df5dd46_z.jpg", "datetakengranularity": "0", "farm": 1, "datetakenunknown": "0", "ispublic": 1, "server": "703", "datetaken": "2015-12-01 18:32:04", "isfriend": 0, "secret": "2b8df5dd46", "tags": "chile white black tree bird blanco monochrome contrast valparaiso monocromo high y negro minimal ave contraste pajaro simple alto ramas arbos", "width_z": "640", "owner": "76750925@N08", "title": "", "id": "23374991951", "height_z": "426"}, {"isfamily": 0, "url_z": "https://farm1.staticflickr.com/437/19527792714_3915872b79_z.jpg", "datetakengranularity": "0", "farm": 1, "datetakenunknown": "0", "ispublic": 1, "server": "437", "datetaken": "2015-06-27 14:52:31", "isfriend": 0, "secret": "3915872b79", "tags": "chile bird valparaiso ave pajaro troglodytes pajarito aedon chercan", "width_z": "640", "owner": "62127431@N02", "title": "Chercan", "id": "19527792714", "height_z": "427"}, {"isfamily": 0, "url_z": "https://farm9.staticflickr.com/8726/16980401925_96029d56be_z.jpg", "datetakengranularity": "0", "farm": 9, "datetakenunknown": "0", "ispublic": 1, "server": "8726", "datetaken": "2015-03-24 17:01:20", "isfriend": 0, "secret": "96029d56be", "tags": "chile roof bird valparaiso ave concepci\u00f3n techo", "width_z": "480", "owner": "113352434@N02", "title": "Chile marzo 2015", "id": "16980401925", "height_z": "640"}, {"isfamily": 0, "url_z": "https://farm9.staticflickr.com/8596/16414583947_8f1115dd46_z.jpg", "datetakengranularity": "0", "farm": 9, "datetakenunknown": "0", "ispublic": 1, "server": "8596", "datetaken": "2014-09-22 20:12:42", "isfriend": 0, "secret": "8f1115dd46", "tags": "chile trip bird valparaiso september septiembre ave pajaro easterisland rapanui isladepascua 2014 canon6d hangoaroa tagsadded sigma50500mmf4563", "width_z": "640", "owner": "63633763@N00", "title": "Rapa nui", "id": "16414583947", "height_z": "427"}, {"isfamily": 0, "url_z": "https://farm9.staticflickr.com/8633/16434842240_4fa1043a99_z.jpg", "datetakengranularity": "0", "farm": 9, "datetakenunknown": "0", "ispublic": 1, "server": "8633", "datetaken": "2014-09-22 20:07:18", "isfriend": 0, "secret": "4fa1043a99", "tags": "chile trip bird animal valparaiso september septiembre ave pajaro easterisland rapanui isladepascua 2014 canon6d hangoaroa tagsadded sigma50500mmf4563", "width_z": "640", "owner": "63633763@N00", "title": "Rapa nui", "id": "16434842240", "height_z": "427"}, {"isfamily": 0, "url_z": "https://farm9.staticflickr.com/8610/16425120419_6bf2930de9_z.jpg", "datetakengranularity": "0", "farm": 9, "datetakenunknown": "0", "ispublic": 1, "server": "8610", "datetaken": "2014-09-22 18:18:26", "isfriend": 0, "secret": "6bf2930de9", "tags": "chile trip bird animal valparaiso september septiembre ave easterisland rapanui isladepascua 2014 pajarao canon6d hangoaroa tagsadded sigma50500mmf4563", "width_z": "640", "owner": "63633763@N00", "title": "Rapanui", "id": "16425120419", "height_z": "427"}, {"isfamily": 0, "url_z": "https://farm9.staticflickr.com/8619/16425112229_e2ac107416_z.jpg", "datetakengranularity": "0", "farm": 9, "datetakenunknown": "0", "ispublic": 1, "server": "8619", "datetaken": "2014-09-22 18:18:08", "isfriend": 0, "secret": "e2ac107416", "tags": "chile trip bird animal valparaiso september septiembre ave easterisland rapanui isladepascua 2014 pajarao canon6d hangoaroa tagsadded sigma50500mmf4563", "width_z": "640", "owner": "63633763@N00", "title": "Rapanui", "id": "16425112229", "height_z": "427"}, {"isfamily": 0, "url_z": "https://farm9.staticflickr.com/8592/15991154803_98cbaf2921_z.jpg", "datetakengranularity": "0", "farm": 9, "datetakenunknown": "0", "ispublic": 1, "server": "8592", "datetaken": "2014-09-22 18:17:46", "isfriend": 0, "secret": "98cbaf2921", "tags": "chile trip bird animal valparaiso september septiembre ave easterisland rapanui isladepascua 2014 pajarao canon6d hangoaroa tagsadded sigma50500mmf4563", "width_z": "640", "owner": "63633763@N00", "title": "Rapanui", "id": "15991154803", "height_z": "427"}, {"isfamily": 0, "url_z": "https://farm8.staticflickr.com/7571/15610433983_78d8d3e839_z.jpg", "datetakengranularity": "0", "farm": 8, "datetakenunknown": "0", "ispublic": 1, "server": "7571", "datetaken": "2010-08-06 11:43:08", "isfriend": 0, "secret": "78d8d3e839", "tags": "chile bird landscape valparaiso paisaje el ave owl hunter postal pajaro scavenger carnivore valpo b\u00faho cazador carn\u00edvoro carro\u00f1ero chuncho", "width_z": "640", "owner": "60298082@N02", "title": "El chuncho", "id": "15610433983", "height_z": "427"}, {"isfamily": 0, "url_z": "https://farm8.staticflickr.com/7486/15677800888_0a5c3d4b16_z.jpg", "datetakengranularity": "0", "farm": 8, "datetakenunknown": "0", "ispublic": 1, "server": "7486", "datetaken": "2014-10-07 15:05:19", "isfriend": 0, "secret": "0a5c3d4b16", "tags": "chile blackandwhite bird birdie valparaiso ave pajaro bnw vi\u00f1adelmar", "width_z": "640", "owner": "105673999@N03", "title": "Vigia", "id": "15677800888", "height_z": "397"}, {"isfamily": 0, "url_z": "https://farm8.staticflickr.com/7097/13936144371_887b1e7e7e_z.jpg", "datetakengranularity": "0", "farm": 8, "datetakenunknown": 0, "ispublic": 1, "server": "7097", "datetaken": "2014-04-20 17:05:24", "isfriend": 0, "secret": "887b1e7e7e", "tags": "chile bird valparaiso ave gaviota zapallar", "width_z": "640", "owner": "111327617@N08", "title": "Zapallar - Chile", "id": "13936144371", "height_z": "426"}, {"isfamily": 0, "url_z": "https://farm4.staticflickr.com/3791/13749202515_d014d980e1_z.jpg", "datetakengranularity": "0", "farm": 4, "datetakenunknown": 0, "ispublic": 1, "server": "3791", "datetaken": "2013-10-27 10:18:33", "isfriend": 0, "secret": "d014d980e1", "tags": "ocean chile naturaleza bird nature birds valparaiso mar nikon aves ave albatros marino avian oceano plumas natgeo thalassarchemelanophris guslight oceanopasifico plumifero gustavonudo", "width_z": "640", "owner": "87913697@N00", "title": "Enorme Albatros de ceja negra", "id": "13749202515", "height_z": "426"}, {"isfamily": 0, "url_z": "https://farm3.staticflickr.com/2904/14213277419_beb4dc3637_z.jpg", "datetakengranularity": "0", "farm": 3, "datetakenunknown": 0, "ispublic": 1, "server": "2904", "datetaken": "2014-01-09 10:02:00", "isfriend": 0, "secret": "beb4dc3637", "tags": "chile naturaleza bird nature valparaiso january enero ave granizo pajaro quillota 2014 olmue canon24105mmf4 canon6d tagsadded sigma50500mmf4563", "width_z": "640", "owner": "63633763@N00", "title": "Granizo 2014", "id": "14213277419", "height_z": "427"}, {"isfamily": 0, "url_z": "https://farm6.staticflickr.com/5561/14398557482_5224390a2f_z.jpg", "datetakengranularity": "0", "farm": 6, "datetakenunknown": 0, "ispublic": 1, "server": "5561", "datetaken": "2014-01-09 10:02:47", "isfriend": 0, "secret": "5224390a2f", "tags": "chile naturaleza bird nature valparaiso january enero ave granizo pajaro quillota 2014 olmue canon24105mmf4 canon6d tagsadded sigma50500mmf4563", "width_z": "640", "owner": "63633763@N00", "title": "Granizo 2014", "id": "14398557482", "height_z": "427"}, {"isfamily": 0, "url_z": "https://farm6.staticflickr.com/5193/14213214849_4cdc983b32_z.jpg", "datetakengranularity": "0", "farm": 6, "datetakenunknown": 0, "ispublic": 1, "server": "5193", "datetaken": "2014-01-09 10:15:55", "isfriend": 0, "secret": "4cdc983b32", "tags": "chile naturaleza bird nature valparaiso january enero ave granizo pajaro quillota 2014 olmue canon24105mmf4 canon6d tagsadded sigma50500mmf4563", "width_z": "640", "owner": "63633763@N00", "title": "Granizo 2014", "id": "14213214849", "height_z": "427"}, {"isfamily": 0, "url_z": "https://farm3.staticflickr.com/2910/14213242488_c76bc89b6b_z.jpg", "datetakengranularity": "0", "farm": 3, "datetakenunknown": 0, "ispublic": 1, "server": "2910", "datetaken": "2014-01-09 10:16:13", "isfriend": 0, "secret": "c76bc89b6b", "tags": "chile naturaleza bird nature valparaiso january enero ave granizo pajaro quillota 2014 olmue canon24105mmf4 canon6d tagsadded sigma50500mmf4563", "width_z": "640", "owner": "63633763@N00", "title": "Granizo 2014", "id": "14213242488", "height_z": "427"}, {"isfamily": 0, "url_z": "https://farm3.staticflickr.com/2913/14213258720_989e90a811_z.jpg", "datetakengranularity": "0", "farm": 3, "datetakenunknown": 0, "ispublic": 1, "server": "2913", "datetaken": "2014-01-09 10:26:40", "isfriend": 0, "secret": "989e90a811", "tags": "chile naturaleza bird nature valparaiso january enero ave granizo pajaro quillota 2014 olmue canon24105mmf4 canon6d tagsadded sigma50500mmf4563", "width_z": "640", "owner": "63633763@N00", "title": "Granizo 2014", "id": "14213258720", "height_z": "427"}, {"isfamily": 0, "url_z": "https://farm6.staticflickr.com/5237/14376710666_dd3ce0cc31_z.jpg", "datetakengranularity": "0", "farm": 6, "datetakenunknown": 0, "ispublic": 1, "server": "5237", "datetaken": "2014-01-09 10:26:46", "isfriend": 0, "secret": "dd3ce0cc31", "tags": "chile naturaleza bird nature animal valparaiso january enero ave granizo pajaro quillota 2014 olmue canon24105mmf4 canon6d tagsadded sigma50500mmf4563", "width_z": "640", "owner": "63633763@N00", "title": "Granizo 2014", "id": "14376710666", "height_z": "427"}, {"isfamily": 0, "url_z": "https://farm3.staticflickr.com/2939/14376696706_b9c4e02eef_z.jpg", "datetakengranularity": "0", "farm": 3, "datetakenunknown": 0, "ispublic": 1, "server": "2939", "datetaken": "2014-01-09 10:28:04", "isfriend": 0, "secret": "b9c4e02eef", "tags": "chile naturaleza bird nature valparaiso january enero ave granizo pajaro quillota 2014 olmue canon24105mmf4 canon6d tagsadded sigma50500mmf4563", "width_z": "640", "owner": "63633763@N00", "title": "Granizo 2014", "id": "14376696706", "height_z": "427"}, {"isfamily": 0, "url_z": "https://farm6.staticflickr.com/5076/14398441192_cae954f400_z.jpg", "datetakengranularity": "0", "farm": 6, "datetakenunknown": 0, "ispublic": 1, "server": "5076", "datetaken": "2014-01-09 10:30:22", "isfriend": 0, "secret": "cae954f400", "tags": "chile naturaleza bird nature valparaiso january enero ave granizo pajaro quillota 2014 olmue canon24105mmf4 canon6d tagsadded sigma50500mmf4563", "width_z": "640", "owner": "63633763@N00", "title": "Granizo 2014", "id": "14398441192", "height_z": "427"}, {"isfamily": 0, "url_z": "https://farm6.staticflickr.com/5584/14396430591_357148ffc1_z.jpg", "datetakengranularity": "0", "farm": 6, "datetakenunknown": 0, "ispublic": 1, "server": "5584", "datetaken": "2014-01-09 10:30:23", "isfriend": 0, "secret": "357148ffc1", "tags": "chile naturaleza bird nature valparaiso january enero ave granizo pajaro quillota 2014 olmue canon24105mmf4 canon6d tagsadded sigma50500mmf4563", "width_z": "640", "owner": "63633763@N00", "title": "Granizo 2014", "id": "14396430591", "height_z": "427"}, {"isfamily": 0, "url_z": "https://farm3.staticflickr.com/2932/14213188360_183a0f7ae2_z.jpg", "datetakengranularity": "0", "farm": 3, "datetakenunknown": 0, "ispublic": 1, "server": "2932", "datetaken": "2014-01-09 10:30:28", "isfriend": 0, "secret": "183a0f7ae2", "tags": "chile naturaleza bird nature valparaiso january enero ave granizo pajaro quillota 2014 olmue canon24105mmf4 canon6d tagsadded sigma50500mmf4563", "width_z": "640", "owner": "63633763@N00", "title": "Granizo 2014", "id": "14213188360", "height_z": "427"}, {"isfamily": 0, "url_z": "https://farm6.staticflickr.com/5320/14396409451_11ff6f67a1_z.jpg", "datetakengranularity": "0", "farm": 6, "datetakenunknown": 0, "ispublic": 1, "server": "5320", "datetaken": "2014-01-09 10:32:13", "isfriend": 0, "secret": "11ff6f67a1", "tags": "chile naturaleza bird nature valparaiso january enero ave granizo pajaro quillota 2014 olmue canon24105mmf4 canon6d tagsadded sigma50500mmf4563", "width_z": "640", "owner": "63633763@N00", "title": "Granizo 2014", "id": "14396409451", "height_z": "427"}, {"isfamily": 0, "url_z": "https://farm4.staticflickr.com/3836/14399710295_5b97a6f581_z.jpg", "datetakengranularity": "0", "farm": 4, "datetakenunknown": 0, "ispublic": 1, "server": "3836", "datetaken": "2014-01-09 10:36:30", "isfriend": 0, "secret": "5b97a6f581", "tags": "chile naturaleza bird nature valparaiso january enero ave granizo pajaro quillota 2014 olmue canon24105mmf4 canon6d tagsadded sigma50500mmf4563", "width_z": "640", "owner": "63633763@N00", "title": "Granizo 2014", "id": "14399710295", "height_z": "427"}, {"isfamily": 0, "url_z": "https://farm4.staticflickr.com/3835/14398295122_443690a8b7_z.jpg", "datetakengranularity": "0", "farm": 4, "datetakenunknown": 0, "ispublic": 1, "server": "3835", "datetaken": "2014-01-10 13:06:48", "isfriend": 0, "secret": "443690a8b7", "tags": "chile naturaleza bird nature valparaiso january enero ave granizo pajaro quillota 2014 olmue canon24105mmf4 canon6d tagsadded sigma50500mmf4563", "width_z": "640", "owner": "63633763@N00", "title": "Granizo 2014", "id": "14398295122", "height_z": "427"}, {"isfamily": 0, "url_z": "https://farm6.staticflickr.com/5195/14376491556_cea4f58eb3_z.jpg", "datetakengranularity": "0", "farm": 6, "datetakenunknown": 0, "ispublic": 1, "server": "5195", "datetaken": "2014-01-10 13:42:21", "isfriend": 0, "secret": "cea4f58eb3", "tags": "chile naturaleza bird nature valparaiso january enero ave granizo pajaro quillota 2014 olmue canon24105mmf4 canon6d tagsadded sigma50500mmf4563", "width_z": "640", "owner": "63633763@N00", "title": "Granizo 2014", "id": "14376491556", "height_z": "427"}, {"isfamily": 0, "url_z": "https://farm4.staticflickr.com/3844/14398246332_befb20734e_z.jpg", "datetakengranularity": "0", "farm": 4, "datetakenunknown": 0, "ispublic": 1, "server": "3844", "datetaken": "2014-01-10 13:42:23", "isfriend": 0, "secret": "befb20734e", "tags": "chile naturaleza bird nature valparaiso january enero ave granizo pajaro quillota 2014 olmue canon24105mmf4 canon6d tagsadded sigma50500mmf4563", "width_z": "640", "owner": "63633763@N00", "title": "Granizo 2014", "id": "14398246332", "height_z": "427"}, {"isfamily": 0, "url_z": "https://farm4.staticflickr.com/3899/14210168680_a55c4c7d56_z.jpg", "datetakengranularity": "0", "farm": 4, "datetakenunknown": 0, "ispublic": 1, "server": "3899", "datetaken": "2014-01-12 11:03:09", "isfriend": 0, "secret": "a55c4c7d56", "tags": "chile bird valparaiso january enero ave granizo pajaro quillota 2014 olmue canon24105mmf4 canon6d tagsadded", "width_z": "427", "owner": "63633763@N00", "title": "Granizo 2014", "id": "14210168680", "height_z": "640"}, {"isfamily": 0, "url_z": "https://farm3.staticflickr.com/2918/14416916663_10d8a75b87_z.jpg", "datetakengranularity": "0", "farm": 3, "datetakenunknown": 0, "ispublic": 1, "server": "2918", "datetaken": "2014-01-12 11:03:15", "isfriend": 0, "secret": "10d8a75b87", "tags": "chile bird valparaiso january enero ave granizo pajaro quillota 2014 olmue canon24105mmf4 canon6d tagsadded", "width_z": "427", "owner": "63633763@N00", "title": "Granizo 2014", "id": "14416916663", "height_z": "640"}, {"isfamily": 0, "url_z": "https://farm3.staticflickr.com/2922/14210125738_0d1283c873_z.jpg", "datetakengranularity": "0", "farm": 3, "datetakenunknown": 0, "ispublic": 1, "server": "2922", "datetaken": "2014-01-12 11:03:20", "isfriend": 0, "secret": "0d1283c873", "tags": "chile bird valparaiso january enero ave granizo pajaro quillota 2014 olmue canon24105mmf4 canon6d tagsadded", "width_z": "427", "owner": "63633763@N00", "title": "Granizo 2014", "id": "14210125738", "height_z": "640"}, {"isfamily": 0, "url_z": "https://farm3.staticflickr.com/2911/14032487826_b77be307b8_z.jpg", "datetakengranularity": "0", "farm": 3, "datetakenunknown": 0, "ispublic": 1, "server": "2911", "datetaken": "2014-04-07 15:01:02", "isfriend": 0, "secret": "b77be307b8", "tags": "chile blackandwhite bw bird blancoynegro animal canon puerto valparaiso calle pigeon paloma ave pajaro valpo callejero", "width_z": "640", "owner": "105673999@N03", "title": "Camper", "id": "14032487826", "height_z": "427"}, {"isfamily": 0, "url_z": "https://farm3.staticflickr.com/2934/13936103201_37c1744257_z.jpg", "datetakengranularity": "0", "farm": 3, "datetakenunknown": 0, "ispublic": 1, "server": "2934", "datetaken": "2014-04-20 17:20:44", "isfriend": 0, "secret": "37c1744257", "tags": "chile bird valparaiso ave zapallar", "width_z": "640", "owner": "111327617@N08", "title": "Zapallar - Chile", "id": "13936103201", "height_z": "459"}, {"isfamily": 0, "url_z": "https://farm6.staticflickr.com/5517/10539147235_b358171d22_z.jpg", "datetakengranularity": "0", "farm": 6, "datetakenunknown": 0, "ispublic": 1, "server": "5517", "datetaken": "2013-10-26 16:10:35", "isfriend": 0, "secret": "b358171d22", "tags": "chile parque costa naturaleza color bird azul del arbol ojo valparaiso mar vi\u00f1a amarillo peligro bosque ave cielo pico alas pajaro gomez pacifico oceano vuelo carre\u00f1o santuario chilean volando ramas costero nativa jilguero protegida tenca endemica esclerofilo", "width_z": "640", "owner": "47614761@N07", "title": "Tenca", "id": "10539147235", "height_z": "427"}, {"isfamily": 0, "url_z": "https://farm4.staticflickr.com/3745/10539120446_44b8241c18_z.jpg", "datetakengranularity": "0", "farm": 4, "datetakenunknown": 0, "ispublic": 1, "server": "3745", "datetaken": "2013-10-26 16:21:07", "isfriend": 0, "secret": "44b8241c18", "tags": "chile parque costa naturaleza color bird azul del arbol ojo valparaiso mar vi\u00f1a amarillo peligro bosque ave cielo pico alas pajaro gomez pacifico oceano vuelo carre\u00f1o santuario chilean volando ramas costero nativa jilguero protegida tenca endemica esclerofilo", "width_z": "640", "owner": "47614761@N07", "title": "Jilgueros", "id": "10539120446", "height_z": "427"}, {"isfamily": 0, "url_z": "https://farm3.staticflickr.com/2892/9218453089_1236140fb6_z.jpg", "datetakengranularity": "0", "farm": 3, "datetakenunknown": 0, "ispublic": 1, "server": "2892", "datetaken": "2013-03-24 19:09:58", "isfriend": 0, "secret": "1236140fb6", "tags": "naturaleza bird valparaiso aves ave concon vregion mantagua rayador", "width_z": "640", "owner": "34166251@N04", "title": "Fast Pair", "id": "9218453089", "height_z": "427"}, {"isfamily": 0, "url_z": "https://farm9.staticflickr.com/8192/8441983928_0ef3cab2ee_z.jpg", "datetakengranularity": "0", "farm": 9, "datetakenunknown": 0, "ispublic": 1, "server": "8192", "datetaken": "2013-01-27 09:23:04", "isfriend": 0, "secret": "0ef3cab2ee", "tags": "chile bird valparaiso birding ave shearwater seabird pinkfooted pinkfootedshearwater puffinuscreatopus aviturismo fardela", "width_z": "640", "owner": "92802221@N05", "title": "Pink-footed Shearwater_Chile, Valparaiso_ByHugoArnal (33)", "id": "8441983928", "height_z": "427"}, {"isfamily": 0, "url_z": "https://farm9.staticflickr.com/8095/8440888691_d24853d41d_z.jpg", "datetakengranularity": "0", "farm": 9, "datetakenunknown": 0, "ispublic": 1, "server": "8095", "datetaken": "2013-01-27 09:37:21", "isfriend": 0, "secret": "d24853d41d", "tags": "chile bird valparaiso birding ave shearwater seabird pinkfooted pinkfootedshearwater puffinuscreatopus aviturismo fardela fardelablanca", "width_z": "640", "owner": "92802221@N05", "title": "Pink-footed Shearwater_Chile, Valparaiso_ByHugoArnal (43)", "id": "8440888691", "height_z": "427"}, {"isfamily": 0, "url_z": "https://farm9.staticflickr.com/8097/8441974472_f3e262b19d_z.jpg", "datetakengranularity": "0", "farm": 9, "datetakenunknown": 0, "ispublic": 1, "server": "8097", "datetaken": "2013-01-27 08:28:10", "isfriend": 0, "secret": "f3e262b19d", "tags": "chile bird valparaiso birding ave seabird albatross salvinsalbatross aviturismo thalassarchesalvini", "width_z": "640", "owner": "92802221@N05", "title": "Salvin's Albatross_Chile, Valpaiso_ByHugoArnal (17)", "id": "8441974472", "height_z": "427"}, {"isfamily": 0, "url_z": "https://farm9.staticflickr.com/8224/8441852058_191456b854_z.jpg", "datetakengranularity": "0", "farm": 9, "datetakenunknown": 0, "ispublic": 1, "server": "8224", "datetaken": "2013-01-27 08:26:53", "isfriend": 0, "secret": "191456b854", "tags": "chile bird valparaiso birding ave albatros seabird albatross salvins salvinsalbatross aviturismo thalassarchesalvini", "width_z": "640", "owner": "92802221@N05", "title": "Salvin's Albatross_Valparaiso, Chile_ByHugoArnal", "id": "8441852058", "height_z": "427"}, {"isfamily": 0, "url_z": "https://farm9.staticflickr.com/8186/8133156098_b020d91daa_z.jpg", "datetakengranularity": "0", "farm": 9, "datetakenunknown": 0, "ispublic": 1, "server": "8186", "datetaken": "2011-10-14 20:32:20", "isfriend": 0, "secret": "b020d91daa", "tags": "chile plant macro cute bird beach grass valparaiso coast ave stick pajaro vi\u00f1adelmar", "width_z": "640", "owner": "68825049@N03", "title": "gorrion", "id": "8133156098", "height_z": "480"}, {"isfamily": 0, "url_z": "https://farm9.staticflickr.com/8457/8036409037_341a0a815e_z.jpg", "datetakengranularity": "0", "farm": 9, "datetakenunknown": 0, "ispublic": 1, "server": "8457", "datetaken": "2012-09-29 09:33:01", "isfriend": 0, "secret": "341a0a815e", "tags": "chile naturaleza bird nature valparaiso aves pelican ave pelicano", "width_z": "640", "owner": "34166251@N04", "title": "Aterrizando", "id": "8036409037", "height_z": "427"}, {"isfamily": 0, "url_z": "https://farm9.staticflickr.com/8173/8036407409_c6506617b0_z.jpg", "datetakengranularity": "0", "farm": 9, "datetakenunknown": 0, "ispublic": 1, "server": "8173", "datetaken": "2012-09-29 09:37:59", "isfriend": 0, "secret": "c6506617b0", "tags": "chile naturaleza bird nature valparaiso aves pelican ave pelicano", "width_z": "640", "owner": "34166251@N04", "title": "Pelican's Portrait", "id": "8036407409", "height_z": "427"}, {"isfamily": 0, "url_z": "https://farm9.staticflickr.com/8459/8036405241_0b07b90e23_z.jpg", "datetakengranularity": "0", "farm": 9, "datetakenunknown": 0, "ispublic": 1, "server": "8459", "datetaken": "2012-09-29 09:38:36", "isfriend": 0, "secret": "0b07b90e23", "tags": "chile naturaleza bird nature valparaiso aves pelican ave pelicano", "width_z": "640", "owner": "34166251@N04", "title": "Listo pa' la Parrilla", "id": "8036405241", "height_z": "427"}, {"isfamily": 0, "url_z": "https://farm9.staticflickr.com/8034/8036403935_65b24c9772_z.jpg", "datetakengranularity": "0", "farm": 9, "datetakenunknown": 0, "ispublic": 1, "server": "8034", "datetaken": "2012-09-29 09:40:30", "isfriend": 0, "secret": "65b24c9772", "tags": "chile naturaleza bird nature valparaiso aves pelican ave pelicano", "width_z": "640", "owner": "34166251@N04", "title": "i se you", "id": "8036403935", "height_z": "427"}, {"isfamily": 0, "url_z": "https://farm9.staticflickr.com/8318/8036405576_3d2c66d023_z.jpg", "datetakengranularity": "0", "farm": 9, "datetakenunknown": 0, "ispublic": 1, "server": "8318", "datetaken": "2012-09-29 09:41:26", "isfriend": 0, "secret": "3d2c66d023", "tags": "chile naturaleza bird nature valparaiso aves pelican ave pelicano", "width_z": "640", "owner": "34166251@N04", "title": "Por aqu\u00ed?", "id": "8036405576", "height_z": "427"}], "pages": 2, "total": "65", "page": 1, "perpage": 50}, "stat": "ok"}