{"photos": {"photo": [{"isfamily": 0, "url_z": "https://farm9.staticflickr.com/8279/29506398110_e4ee26b2b9_z.jpg", "datetakengranularity": "0", "farm": 9, "datetakenunknown": "0", "ispublic": 1, "server": "8279", "datetaken": "2016-09-10 15:01:49", "isfriend": 0, "secret": "e4ee26b2b9", "tags": "mrofilms valparaguayo valparaiso valpo gato cat", "width_z": "427", "owner": "25832471@N03", "title": "Felino porte\u00f1o", "id": "29506398110", "height_z": "640"}, {"isfamily": 0, "url_z": "https://farm9.staticflickr.com/8274/29337352030_8f84b4e0f3_z.jpg", "datetakengranularity": "0", "farm": 9, "datetakenunknown": "0", "ispublic": 1, "server": "8274", "datetaken": "2016-06-08 15:54:14", "isfriend": 0, "secret": "8f84b4e0f3", "tags": "cats cat gatos gato animales mascotas catlover catlovers chile valparaiso", "width_z": "640", "owner": "134269399@N04", "title": "cat's", "id": "29337352030", "height_z": "426"}, {"isfamily": 0, "url_z": "https://farm9.staticflickr.com/8272/29516936202_8693c112c0_z.jpg", "datetakengranularity": "0", "farm": 9, "datetakenunknown": "0", "ispublic": 1, "server": "8272", "datetaken": "2016-06-08 15:54:22", "isfriend": 0, "secret": "8693c112c0", "tags": "cats cat gatos gato animales mascotas catlover catlovers chile valparaiso", "width_z": "640", "owner": "134269399@N04", "title": "cat's", "id": "29516936202", "height_z": "426"}, {"isfamily": 0, "url_z": "https://farm9.staticflickr.com/8506/29546964171_73ff55c123_z.jpg", "datetakengranularity": "0", "farm": 9, "datetakenunknown": "0", "ispublic": 1, "server": "8506", "datetaken": "2016-06-08 15:52:42", "isfriend": 0, "secret": "73ff55c123", "tags": "cats cat gatos gato animales mascotas catlover catlovers chile valparaiso", "width_z": "640", "owner": "134269399@N04", "title": "cat's", "id": "29546964171", "height_z": "426"}, {"isfamily": 0, "url_z": "https://farm9.staticflickr.com/8087/29003813123_f7fb6a612a_z.jpg", "datetakengranularity": "0", "farm": 9, "datetakenunknown": "0", "ispublic": 1, "server": "8087", "datetaken": "2016-06-08 15:52:54", "isfriend": 0, "secret": "f7fb6a612a", "tags": "cats cat gatos gato animales mascotas catlover catlovers chile valparaiso", "width_z": "640", "owner": "134269399@N04", "title": "cat's", "id": "29003813123", "height_z": "426"}, {"isfamily": 0, "url_z": "https://farm9.staticflickr.com/8856/29001791664_0fb956f7e2_z.jpg", "datetakengranularity": "0", "farm": 9, "datetakenunknown": "0", "ispublic": 1, "server": "8856", "datetaken": "2016-06-08 15:53:06", "isfriend": 0, "secret": "0fb956f7e2", "tags": "cats cat gatos gato animales mascotas catlover catlovers chile valparaiso", "width_z": "640", "owner": "134269399@N04", "title": "cat's", "id": "29001791664", "height_z": "426"}, {"isfamily": 0, "url_z": "https://farm9.staticflickr.com/8807/29337331380_30b035bbf8_z.jpg", "datetakengranularity": "0", "farm": 9, "datetakenunknown": "0", "ispublic": 1, "server": "8807", "datetaken": "2016-06-08 15:53:47", "isfriend": 0, "secret": "30b035bbf8", "tags": "cats cat gatos gato animales mascotas catlover catlovers chile valparaiso", "width_z": "640", "owner": "134269399@N04", "title": "cat's", "id": "29337331380", "height_z": "426"}, {"isfamily": 0, "url_z": "https://farm9.staticflickr.com/8550/29215735965_e174f54696_z.jpg", "datetakengranularity": "0", "farm": 9, "datetakenunknown": "0", "ispublic": 1, "server": "8550", "datetaken": "2016-08-22 02:00:44", "isfriend": 0, "secret": "e174f54696", "tags": "cat gato valparaiso watching observando instinto instinct personality personalidad d3100 chile eyes ojos meencontro cloudy nublado", "width_z": "640", "owner": "146025008@N06", "title": "Cerca del mercado de Valparaiso....", "id": "29215735965", "height_z": "415"}, {"isfamily": 0, "url_z": "https://farm9.staticflickr.com/8078/28412682423_c67de01a7d_z.jpg", "datetakengranularity": 0, "farm": 9, "datetakenunknown": "1", "ispublic": 1, "server": "8078", "datetaken": "2016-08-16 15:57:05", "isfriend": 0, "secret": "c67de01a7d", "tags": "cat kitty gato animal animals valparaiso valpo chile", "width_z": "640", "owner": "141715427@N08", "title": "Cat fantastic", "id": "28412682423", "height_z": "361"}, {"isfamily": 0, "url_z": "https://farm9.staticflickr.com/8899/28384773053_31a897a9ce_z.jpg", "datetakengranularity": "0", "farm": 9, "datetakenunknown": "0", "ispublic": 1, "server": "8899", "datetaken": "2016-07-31 15:12:38", "isfriend": 0, "secret": "31a897a9ce", "tags": "mrofilms valparaguayo valparaiso valpo gato cat dientes", "width_z": "427", "owner": "25832471@N03", "title": "Afilando dientes", "id": "28384773053", "height_z": "640"}, {"isfamily": 0, "url_z": "https://farm9.staticflickr.com/8878/28058729354_e2ee37ecd8_z.jpg", "datetakengranularity": "0", "farm": 9, "datetakenunknown": "0", "ispublic": 1, "server": "8878", "datetaken": "2016-02-08 12:44:06", "isfriend": 0, "secret": "e2ee37ecd8", "tags": "gato chile valparaiso pretoebranco cat blackandwhite", "width_z": "426", "owner": "15450544@N07", "title": "Valpo - Chile", "id": "28058729354", "height_z": "640"}, {"isfamily": 0, "url_z": "https://farm9.staticflickr.com/8493/28348047952_58ace930e6_z.jpg", "datetakengranularity": 0, "farm": 9, "datetakenunknown": "1", "ispublic": 1, "server": "8493", "datetaken": "2015-10-02 19:30:07", "isfriend": 0, "secret": "58ace930e6", "tags": "chile byn film blanco cat 35mm valparaiso negro bn gato latinoamerica pelicula 35 ilford valpo analogico", "width_z": "640", "owner": "33537850@N04", "title": "Valpo", "id": "28348047952", "height_z": "420"}, {"isfamily": 0, "url_z": "https://farm9.staticflickr.com/8146/28160271890_c0c15b19fe_z.jpg", "datetakengranularity": "0", "farm": 9, "datetakenunknown": "0", "ispublic": 1, "server": "8146", "datetaken": "2016-07-16 14:11:54", "isfriend": 0, "secret": "c0c15b19fe", "tags": "gato cat catlover catlovers valpo valparaiso chile southamerica", "width_z": "640", "owner": "142695430@N05", "title": "Gato Valpo", "id": "28160271890", "height_z": "427"}, {"isfamily": 0, "url_z": "https://farm9.staticflickr.com/8288/27766611343_abc0fdbe29_z.jpg", "datetakengranularity": "0", "farm": 9, "datetakenunknown": "0", "ispublic": 1, "server": "8288", "datetaken": "2016-07-19 15:10:58", "isfriend": 0, "secret": "abc0fdbe29", "tags": "color cat canon valparaiso ojos gato t5i", "width_z": "427", "owner": "118301274@N05", "title": "Superior", "id": "27766611343", "height_z": "640"}, {"isfamily": 0, "url_z": "https://farm9.staticflickr.com/8682/27996386300_11366749f1_z.jpg", "datetakengranularity": "0", "farm": 9, "datetakenunknown": "0", "ispublic": 1, "server": "8682", "datetaken": "2016-07-11 14:41:42", "isfriend": 0, "secret": "11366749f1", "tags": "paw cat valparaiso valparadise gato street nikon", "width_z": "640", "owner": "144680508@N06", "title": "Little Paw", "id": "27996386300", "height_z": "427"}, {"isfamily": 0, "url_z": "https://farm8.staticflickr.com/7414/27956716326_2b324dab61_z.jpg", "datetakengranularity": 0, "farm": 8, "datetakenunknown": "1", "ispublic": 1, "server": "7414", "datetaken": "2016-02-27 23:00:45", "isfriend": 0, "secret": "2b324dab61", "tags": "cat valparaiso gato valpo valparaguayo mrofilms", "width_z": "640", "owner": "25832471@N03", "title": "Gato porte\u00f1o", "id": "27956716326", "height_z": "351"}, {"isfamily": 0, "url_z": "https://farm8.staticflickr.com/7262/27004688063_e076c00e13_z.jpg", "datetakengranularity": "0", "farm": 8, "datetakenunknown": "0", "ispublic": 1, "server": "7262", "datetaken": "2016-06-11 16:25:50", "isfriend": 0, "secret": "e076c00e13", "tags": "cat valparaiso gato techo valpo valparaguayo mrofilms", "width_z": "427", "owner": "25832471@N03", "title": "Techos porte\u00f1os", "id": "27004688063", "height_z": "640"}, {"isfamily": 0, "url_z": "https://farm8.staticflickr.com/7584/27317402271_d6818f2c4e_z.jpg", "datetakengranularity": "0", "farm": 8, "datetakenunknown": "0", "ispublic": 1, "server": "7584", "datetaken": "2015-10-08 16:31:49", "isfriend": 0, "secret": "d6818f2c4e", "tags": "chile flowers flores cat valparaiso gato", "width_z": "640", "owner": "142234333@N02", "title": "IMG_1052", "id": "27317402271", "height_z": "640"}, {"isfamily": 0, "url_z": "https://farm8.staticflickr.com/7604/27255899631_cf819d7d40_z.jpg", "datetakengranularity": 0, "farm": 8, "datetakenunknown": "1", "ispublic": 1, "server": "7604", "datetaken": "2016-05-29 00:12:52", "isfriend": 0, "secret": "cf819d7d40", "tags": "chile sunset sol animal cat valparaiso shine colores gato tarde calor cerroalegre", "width_z": "640", "owner": "47748034@N04", "title": "Cat", "id": "27255899631", "height_z": "427"}, {"isfamily": 0, "url_z": "https://farm8.staticflickr.com/7311/26571576204_203d29fe5d_z.jpg", "datetakengranularity": "0", "farm": 8, "datetakenunknown": "0", "ispublic": 1, "server": "7311", "datetaken": "2016-05-13 10:38:03", "isfriend": 0, "secret": "203d29fe5d", "tags": "chile road cat valparaiso gato", "width_z": "640", "owner": "55854946@N04", "title": "Gato en Valparaiso", "id": "26571576204", "height_z": "424"}, {"isfamily": 0, "url_z": "https://farm8.staticflickr.com/7214/27007274396_225f80e337_z.jpg", "datetakengranularity": "0", "farm": 8, "datetakenunknown": "0", "ispublic": 1, "server": "7214", "datetaken": "2015-11-28 14:27:20", "isfriend": 0, "secret": "225f80e337", "tags": "chile street streetart color colour muro wall cat graffiti valparaiso calle mural gato valpara\u00edso valpo calleserrano patrimoniodelahumanidad plazasotomayor ascensorelperal regi\u00f3ndevalpara\u00edso paseo21demayo ciudadpatrimoniodelahumanidad cerrocordillera cerroartiller\u00eda plazawheelwright cerrosdevalpara\u00edso ascensorcordillera puertodevalpara\u00edso barriopuerto lajoyadelpac\u00edfico ascensorartiller\u00eda laperladelpac\u00edfico ciudaddevalpara\u00edso streetartlatinoamericano granvalpara\u00edso ascensoresdevalpara\u00edso provinciadevalpara\u00edso latinamericanstreetart chileanstreetart streetartchileno cerroelperal", "width_z": "640", "owner": "34576387@N05", "title": "Valpara\u00edso", "id": "27007274396", "height_z": "480"}, {"isfamily": 0, "url_z": "https://farm8.staticflickr.com/7376/26928383196_1c3fc6bb6f_z.jpg", "datetakengranularity": "0", "farm": 8, "datetakenunknown": "0", "ispublic": 1, "server": "7376", "datetaken": "2016-04-30 10:43:43", "isfriend": 0, "secret": "1c3fc6bb6f", "tags": "street city urban animal stairs cat canon valparaiso streetphotography sigma escalera gato animalportrait t5i", "width_z": "640", "owner": "53770441@N04", "title": "Gatito", "id": "26928383196", "height_z": "428"}, {"isfamily": 0, "url_z": "https://farm8.staticflickr.com/7234/26268922273_bf675ec0c5_z.jpg", "datetakengranularity": 0, "farm": 8, "datetakenunknown": "1", "ispublic": 1, "server": "7234", "datetaken": "2016-05-07 14:10:16", "isfriend": 0, "secret": "bf675ec0c5", "tags": "sun film cat 35mm valparaiso gato analogue analoguephotography catresting", "width_z": "640", "owner": "88911392@N02", "title": "", "id": "26268922273", "height_z": "435"}, {"isfamily": 0, "url_z": "https://farm8.staticflickr.com/7384/26542636960_e48d881a82_z.jpg", "datetakengranularity": "0", "farm": 8, "datetakenunknown": "0", "ispublic": 1, "server": "7384", "datetaken": "2016-05-04 09:02:21", "isfriend": 0, "secret": "e48d881a82", "tags": "chile blue houses plants muro verde green blanco smile animal azul wall cat hydrant fire graffiti valparaiso cafe nikon df colours grafiti colores amarillo cerro gato stare sonrisa tap nikkor passage cemento casas 58mm grifo concret concreto macetero pasaje adoqu\u00edn nikondf", "width_z": "640", "owner": "136761463@N05", "title": "A cat and a smile, 189 street", "id": "26542636960", "height_z": "423"}, {"isfamily": 0, "url_z": "https://farm2.staticflickr.com/1611/26491581895_61ab042661_z.jpg", "datetakengranularity": "0", "farm": 2, "datetakenunknown": "0", "ispublic": 1, "server": "1611", "datetaken": "2016-03-20 13:51:34", "isfriend": 0, "secret": "61ab042661", "tags": "cat valparaiso gato gata valpara\u00edso", "width_z": "360", "owner": "10600681@N04", "title": "La gata", "id": "26491581895", "height_z": "640"}, {"isfamily": 0, "url_z": "https://farm2.staticflickr.com/1465/25888479393_a6424db571_z.jpg", "datetakengranularity": "0", "farm": 2, "datetakenunknown": "0", "ispublic": 1, "server": "1465", "datetaken": "2011-01-28 18:21:52", "isfriend": 0, "secret": "a6424db571", "tags": "animal cat valparaiso bigotes gato", "width_z": "640", "owner": "51883761@N03", "title": "Bigotes", "id": "25888479393", "height_z": "425"}, {"isfamily": 0, "url_z": "https://farm2.staticflickr.com/1647/25695894123_b7e17f94c7_z.jpg", "datetakengranularity": "0", "farm": 2, "datetakenunknown": "0", "ispublic": 1, "server": "1647", "datetaken": "2016-03-19 18:12:05", "isfriend": 0, "secret": "b7e17f94c7", "tags": "chile cat valparaiso gato valpo shallowdepthoffield", "width_z": "427", "owner": "45417756@N05", "title": "IMG_7380", "id": "25695894123", "height_z": "640"}, {"isfamily": 0, "url_z": "https://farm2.staticflickr.com/1474/25890897491_113224c7e4_z.jpg", "datetakengranularity": "0", "farm": 2, "datetakenunknown": "0", "ispublic": 1, "server": "1474", "datetaken": "2016-03-12 19:25:02", "isfriend": 0, "secret": "113224c7e4", "tags": "cat valparaiso gato valpo valparaguayo mrofilms", "width_z": "640", "owner": "25832471@N03", "title": "Gato porte\u00f1o", "id": "25890897491", "height_z": "427"}, {"isfamily": 0, "url_z": "https://farm2.staticflickr.com/1618/25550798472_253038f485_z.jpg", "datetakengranularity": 0, "farm": 2, "datetakenunknown": "1", "ispublic": 1, "server": "1618", "datetaken": "2016-02-27 22:57:22", "isfriend": 0, "secret": "253038f485", "tags": "cat valparaiso gato valpo valparaguayo mrofilms", "width_z": "640", "owner": "25832471@N03", "title": "Siempre te observan", "id": "25550798472", "height_z": "379"}, {"isfamily": 0, "url_z": "https://farm2.staticflickr.com/1574/24946031053_3fae83cc5f_z.jpg", "datetakengranularity": "0", "farm": 2, "datetakenunknown": "0", "ispublic": 1, "server": "1574", "datetaken": "2015-03-06 17:52:05", "isfriend": 0, "secret": "3fae83cc5f", "tags": "cat valparaiso cerro gato alegre 2016", "width_z": "640", "owner": "7764258@N07", "title": "Cerro alegre - Valparaiso", "id": "24946031053", "height_z": "425"}, {"isfamily": 0, "url_z": "https://farm2.staticflickr.com/1442/25314330901_3a7d086bea_z.jpg", "datetakengranularity": "0", "farm": 2, "datetakenunknown": "0", "ispublic": 1, "server": "1442", "datetaken": "2016-02-27 17:41:26", "isfriend": 0, "secret": "3a7d086bea", "tags": "cat valparaiso calle gato valpo valparaguayo mrofilms", "width_z": "640", "owner": "25832471@N03", "title": "Felino porte\u00f1o", "id": "25314330901", "height_z": "427"}, {"isfamily": 0, "url_z": "https://farm2.staticflickr.com/1562/24425255559_990eccffcb_z.jpg", "datetakengranularity": "0", "farm": 2, "datetakenunknown": "0", "ispublic": 1, "server": "1562", "datetaken": "2014-04-10 11:01:30", "isfriend": 0, "secret": "990eccffcb", "tags": "chile cat valparaiso gato katze gatto", "width_z": "640", "owner": "41549037@N00", "title": "Valpara\u00edso (Chile) - El gato literato", "id": "24425255559", "height_z": "426"}, {"isfamily": 0, "url_z": "https://farm2.staticflickr.com/1701/24134624109_596f4f756f_z.jpg", "datetakengranularity": 0, "farm": 2, "datetakenunknown": "1", "ispublic": 1, "server": "1701", "datetaken": "2015-08-13 14:06:06", "isfriend": 0, "secret": "596f4f756f", "tags": "chile street blackandwhite streetart art cat gris valparaiso negro gatos gato callejero removedfromstrobistpool nooffcameraflash seerule1", "width_z": "408", "owner": "135018965@N05", "title": "Valpara\u00edso, Chile.", "id": "24134624109", "height_z": "640"}, {"isfamily": 0, "url_z": "https://farm2.staticflickr.com/1504/24108749740_a4813979c6_z.jpg", "datetakengranularity": "0", "farm": 2, "datetakenunknown": "0", "ispublic": 1, "server": "1504", "datetaken": "2015-03-19 11:29:10", "isfriend": 0, "secret": "a4813979c6", "tags": "chile cat valparaiso gato", "width_z": "640", "owner": "132879327@N04", "title": "Gato sobre el auto", "id": "24108749740", "height_z": "480"}, {"isfamily": 0, "url_z": "https://farm6.staticflickr.com/5639/23441207352_34e6290142_z.jpg", "datetakengranularity": "0", "farm": 6, "datetakenunknown": "0", "ispublic": 1, "server": "5639", "datetaken": "2015-08-13 14:11:01", "isfriend": 0, "secret": "34e6290142", "tags": "cats home cat valparaiso casa gato", "width_z": "640", "owner": "138300333@N06", "title": "La mascota del hogar", "id": "23441207352", "height_z": "426"}, {"isfamily": 0, "url_z": "https://farm1.staticflickr.com/570/23242818182_8271b8cf62_z.jpg", "datetakengranularity": "0", "farm": 1, "datetakenunknown": "0", "ispublic": 1, "server": "570", "datetaken": "2015-11-15 14:28:16", "isfriend": 0, "secret": "8271b8cf62", "tags": "chile street flowers blue art colors cat valparaiso mural colorful arte colores cerro gato alegre", "width_z": "640", "owner": "137900134@N04", "title": "El Gato Errante", "id": "23242818182", "height_z": "480"}, {"isfamily": 0, "url_z": "https://farm1.staticflickr.com/693/22275133393_7c0e971b4e_z.jpg", "datetakengranularity": "0", "farm": 1, "datetakenunknown": "0", "ispublic": 1, "server": "693", "datetaken": "2015-11-07 15:10:16", "isfriend": 0, "secret": "7c0e971b4e", "tags": "chile cat valparaiso gato alpha6000 ilce6000", "width_z": "640", "owner": "125022165@N07", "title": "Gnocchi", "id": "22275133393", "height_z": "360"}, {"isfamily": 0, "url_z": "https://farm6.staticflickr.com/5831/22420795542_a21d318784_z.jpg", "datetakengranularity": "0", "farm": 6, "datetakenunknown": "0", "ispublic": 1, "server": "5831", "datetaken": "2012-05-26 11:58:23", "isfriend": 0, "secret": "a21d318784", "tags": "cat valparaiso paz gato", "width_z": "640", "owner": "135997979@N03", "title": "paz en valpa", "id": "22420795542", "height_z": "480"}, {"isfamily": 0, "url_z": "https://farm6.staticflickr.com/5783/22185847450_7ac87d79e5_z.jpg", "datetakengranularity": "0", "farm": 6, "datetakenunknown": "0", "ispublic": 1, "server": "5783", "datetaken": "2015-10-18 15:08:04", "isfriend": 0, "secret": "7ac87d79e5", "tags": "verde cat valparaiso eyes ojos gato desenfoque contraste mirada amalia", "width_z": "640", "owner": "131202832@N05", "title": "Un observador", "id": "22185847450", "height_z": "427"}, {"isfamily": 0, "url_z": "https://farm1.staticflickr.com/660/20879852123_b76fafe16a_z.jpg", "datetakengranularity": "0", "farm": 1, "datetakenunknown": "0", "ispublic": 1, "server": "660", "datetaken": "2015-07-22 08:53:32", "isfriend": 0, "secret": "b76fafe16a", "tags": "chile window cat ventana valparaiso gato", "width_z": "640", "owner": "10370909@N08", "title": "Si t\u00fa me miras", "id": "20879852123", "height_z": "427"}, {"isfamily": 0, "url_z": "https://farm6.staticflickr.com/5768/21211499518_7cebb367c2_z.jpg", "datetakengranularity": "0", "farm": 6, "datetakenunknown": "0", "ispublic": 1, "server": "5768", "datetaken": "2015-09-06 13:07:00", "isfriend": 0, "secret": "7cebb367c2", "tags": "chile cat valparaiso gato", "width_z": "640", "owner": "116643573@N05", "title": "Gatos en Valparaiso", "id": "21211499518", "height_z": "426"}, {"isfamily": 0, "url_z": "https://farm6.staticflickr.com/5826/21256084368_117ce3d77e_z.jpg", "datetakengranularity": "0", "farm": 6, "datetakenunknown": "0", "ispublic": 1, "server": "5826", "datetaken": "2015-09-06 13:43:26", "isfriend": 0, "secret": "117ce3d77e", "tags": "chile cat valparaiso gato", "width_z": "640", "owner": "116643573@N05", "title": "Gatos en Valparaiso", "id": "21256084368", "height_z": "416"}, {"isfamily": 0, "url_z": "https://farm6.staticflickr.com/5807/21452295301_73ae554f9c_z.jpg", "datetakengranularity": "0", "farm": 6, "datetakenunknown": "0", "ispublic": 1, "server": "5807", "datetaken": "2015-09-06 14:14:17", "isfriend": 0, "secret": "73ae554f9c", "tags": "chile cat valparaiso gato", "width_z": "640", "owner": "116643573@N05", "title": "Gatos en Valparaiso", "id": "21452295301", "height_z": "415"}, {"isfamily": 0, "url_z": "https://farm1.staticflickr.com/719/21394695676_6c6a90ea18_z.jpg", "datetakengranularity": "0", "farm": 1, "datetakenunknown": "0", "ispublic": 1, "server": "719", "datetaken": "2014-08-04 14:27:47", "isfriend": 0, "secret": "6c6a90ea18", "tags": "chile abstract art colors cat valparaiso store colours arte colores tienda gato abstracto iv guardian guardi\u00e1n mijail", "width_z": "640", "owner": "136101763@N06", "title": "The Guardian Cat!", "id": "21394695676", "height_z": "427"}, {"isfamily": 0, "url_z": "https://farm6.staticflickr.com/5739/21234033929_389a562ac0_z.jpg", "datetakengranularity": "0", "farm": 6, "datetakenunknown": "0", "ispublic": 1, "server": "5739", "datetaken": "2014-08-04 14:54:39", "isfriend": 0, "secret": "389a562ac0", "tags": "chile windows orange naturaleza abstract art nature colors architecture cat valparaiso arquitectura arte ventanas gato abstracto iv naranja mijail", "width_z": "640", "owner": "136101763@N06", "title": "The Cat and the Wall!", "id": "21234033929", "height_z": "427"}, {"isfamily": 0, "url_z": "https://farm6.staticflickr.com/5654/20776633424_3d0376a73a_z.jpg", "datetakengranularity": "0", "farm": 6, "datetakenunknown": "0", "ispublic": 1, "server": "5654", "datetaken": "2015-09-06 13:06:50", "isfriend": 0, "secret": "3d0376a73a", "tags": "chile cat valparaiso gato", "width_z": "512", "owner": "116643573@N05", "title": "Gatos en Valparaiso", "id": "20776633424", "height_z": "640"}, {"isfamily": 0, "url_z": "https://farm1.staticflickr.com/699/21246765296_00ab5c0c75_z.jpg", "datetakengranularity": "0", "farm": 1, "datetakenunknown": "0", "ispublic": 1, "server": "699", "datetaken": "2015-09-06 13:46:56", "isfriend": 0, "secret": "00ab5c0c75", "tags": "pet animal cat valparaiso gato mascota", "width_z": "427", "owner": "129071093@N06", "title": "Hide-and-seek", "id": "21246765296", "height_z": "640"}, {"isfamily": 0, "url_z": "https://farm6.staticflickr.com/5627/20238432363_ef0ca99850_z.jpg", "datetakengranularity": "0", "farm": 6, "datetakenunknown": "0", "ispublic": 1, "server": "5627", "datetaken": "2013-02-15 18:25:31", "isfriend": 0, "secret": "ef0ca99850", "tags": "chile cat valparaiso kitty gato", "width_z": "459", "owner": "50992167@N04", "title": "Minino Sta Mar\u00eda", "id": "20238432363", "height_z": "610"}, {"isfamily": 0, "url_z": "https://farm1.staticflickr.com/590/20785764515_4af3ba61f5_z.jpg", "datetakengranularity": "0", "farm": 1, "datetakenunknown": "0", "ispublic": 1, "server": "590", "datetaken": "2015-07-08 17:14:39", "isfriend": 0, "secret": "4af3ba61f5", "tags": "cat puerto valparaiso gato valpara\u00edso cerrosdevalpara\u00edso", "width_z": "640", "owner": "8146555@N03", "title": "\u00c1ngulo", "id": "20785764515", "height_z": "426"}, {"isfamily": 0, "url_z": "https://farm6.staticflickr.com/5629/20597762528_0dc88c2d38_z.jpg", "datetakengranularity": "0", "farm": 6, "datetakenunknown": "0", "ispublic": 1, "server": "5629", "datetaken": "2015-07-08 17:18:34", "isfriend": 0, "secret": "0dc88c2d38", "tags": "chile cat puerto valparaiso gato valpara\u00edso cerrosdevalpara\u00edso", "width_z": "640", "owner": "8146555@N03", "title": "Lalala", "id": "20597762528", "height_z": "426"}], "pages": 12, "total": "599", "page": 1, "perpage": 50}, "stat": "ok"}