{"photos": {"photo": [{"isfamily": 0, "url_z": "https://farm5.staticflickr.com/4085/4994008723_60850254f3_z.jpg", "datetakengranularity": "0", "farm": 5, "datetakenunknown": 0, "ispublic": 1, "server": "4085", "datetaken": "2010-04-18 02:27:10", "isfriend": 0, "secret": "60850254f3", "tags": "chile valparaiso monumentos puertodevalparaiso regi\u00f3ndevalparaiso ciudaddevalparaiso monumentoalordcochrane thomasalexandercochrane lordalmirante", "width_z": "640", "owner": "11946814@N02", "title": "MONUMENTO A LORD COCHRANE", "id": "4994008723", "height_z": "480"}, {"isfamily": 0, "url_z": "https://farm4.staticflickr.com/3447/3201156377_18d05b0d58_z.jpg", "datetakengranularity": "0", "farm": 4, "datetakenunknown": 0, "ispublic": 1, "server": "3447", "datetaken": "2009-01-16 15:36:11", "isfriend": 0, "secret": "18d05b0d58", "tags": "chile valparaiso estatuas plazas monumentos ohiggins lamatriz vreg\u00f3n estatuasesucestres", "width_z": 479, "owner": "11946814@N02", "title": "BERNARDO O\"HIGGINS", "id": "3201156377", "height_z": "640"}, {"isfamily": 0, "url_z": "https://farm4.staticflickr.com/3443/3201156059_b70424e841_z.jpg", "datetakengranularity": "0", "farm": 4, "datetakenunknown": 0, "ispublic": 1, "server": "3443", "datetaken": "2009-01-16 15:36:01", "isfriend": 0, "secret": "b70424e841", "tags": "chile valparaiso estatuas plazas monumentos ohiggins lamatriz vreg\u00f3n estatuasesucestres", "width_z": 479, "owner": "11946814@N02", "title": "BERNARDO O\"HIGGINS", "id": "3201156059", "height_z": "640"}, {"isfamily": 0, "url_z": "https://farm4.staticflickr.com/3533/3202001268_a7a091959d_z.jpg", "datetakengranularity": "0", "farm": 4, "datetakenunknown": 0, "ispublic": 1, "server": "3533", "datetaken": "2009-01-16 15:35:48", "isfriend": 0, "secret": "a7a091959d", "tags": "chile valparaiso estatuas plazas monumentos ohiggins lamatriz vreg\u00f3n estatuasesucestres", "width_z": "640", "owner": "11946814@N02", "title": "BERNARDO O\"HIGGINS", "id": "3202001268", "height_z": 479}, {"isfamily": 0, "url_z": "https://farm4.staticflickr.com/3457/3202000478_5c8cddd190_z.jpg", "datetakengranularity": "0", "farm": 4, "datetakenunknown": 0, "ispublic": 1, "server": "3457", "datetaken": "2009-01-16 15:35:24", "isfriend": 0, "secret": "5c8cddd190", "tags": "chile valparaiso estatuas plazas monumentos ohiggins lamatriz vreg\u00f3n estatuasesucestres", "width_z": "640", "owner": "11946814@N02", "title": "VALPARAISO", "id": "3202000478", "height_z": 479}, {"isfamily": 0, "url_z": "https://farm4.staticflickr.com/3494/3201999712_bd37f910b3_z.jpg", "datetakengranularity": "0", "farm": 4, "datetakenunknown": 0, "ispublic": 1, "server": "3494", "datetaken": "2009-01-16 15:34:59", "isfriend": 0, "secret": "bd37f910b3", "tags": "chile valparaiso estatuas plazas monumentos ohiggins lamatriz vreg\u00f3n estatuasesucestres", "width_z": 479, "owner": "11946814@N02", "title": "IGLESIA DE LA MATRIZ", "id": "3201999712", "height_z": "640"}, {"isfamily": 0, "url_z": "https://farm4.staticflickr.com/3421/3201153587_2af8c5bbe4_z.jpg", "datetakengranularity": "0", "farm": 4, "datetakenunknown": 0, "ispublic": 1, "server": "3421", "datetaken": "2009-01-16 15:34:47", "isfriend": 0, "secret": "2af8c5bbe4", "tags": "chile valparaiso estatuas plazas monumentos ohiggins lamatriz vreg\u00f3n estatuasesucestres", "width_z": 479, "owner": "11946814@N02", "title": "PLAZA ECHAURREN", "id": "3201153587", "height_z": "640"}, {"isfamily": 0, "url_z": "https://farm4.staticflickr.com/3410/3201998504_ae1c37fc7c_z.jpg", "datetakengranularity": "0", "farm": 4, "datetakenunknown": 0, "ispublic": 1, "server": "3410", "datetaken": "2009-01-16 15:34:24", "isfriend": 0, "secret": "ae1c37fc7c", "tags": "chile valparaiso estatuas plazas monumentos ohiggins lamatriz vreg\u00f3n estatuasesucestres", "width_z": "640", "owner": "11946814@N02", "title": "PLAZA ECHAURREN", "id": "3201998504", "height_z": 479}, {"isfamily": 0, "url_z": "https://farm8.staticflickr.com/7377/9721011054_627a6fa35f_z.jpg", "datetakengranularity": "0", "farm": 8, "datetakenunknown": 0, "ispublic": 1, "server": "7377", "datetaken": "2006-01-07 18:09:24", "isfriend": 0, "secret": "627a6fa35f", "tags": "chile street city cidade patagonia house canon puerto atardecer rebel valparaiso casa calle chili transport playa porto cerro monumentos rua ascensor valpara\u00edso neruda valpo transporte ancha herecomesthesun regi\u00f3ndevalpara\u00edso", "width_z": "368", "owner": "39426269@N03", "title": "af0506_3218 (2)", "id": "9721011054", "height_z": "580"}, {"isfamily": 0, "url_z": "https://farm6.staticflickr.com/5534/9721010674_64abe6f4ac_z.jpg", "datetakengranularity": "0", "farm": 6, "datetakenunknown": 0, "ispublic": 1, "server": "5534", "datetaken": "2013-09-10 15:07:41", "isfriend": 0, "secret": "64abe6f4ac", "tags": "chile street city cidade patagonia canon landscape puerto atardecer rebel valparaiso mar calle chili playa porto cerro monumentos rua ascensor valpara\u00edso neruda valpo ancha herecomesthesun regi\u00f3ndevalpara\u00edso", "width_z": "446", "owner": "39426269@N03", "title": "af0506_3244 (1)", "id": "9721010674", "height_z": "600"}, {"isfamily": 0, "url_z": "https://farm9.staticflickr.com/8121/9010705010_11fa39aed4_z.jpg", "datetakengranularity": "0", "farm": 9, "datetakenunknown": 0, "ispublic": 1, "server": "8121", "datetaken": "2013-06-04 15:46:53", "isfriend": 0, "secret": "11fa39aed4", "tags": "chile valparaiso plazas monumentos vregion regiondevalparaiso", "width_z": "480", "owner": "14710056@N03", "title": "Monumento en Valparaiso", "id": "9010705010", "height_z": "640"}, {"isfamily": 0, "url_z": "https://farm4.staticflickr.com/3816/9010691810_bd76929ec5_z.jpg", "datetakengranularity": "0", "farm": 4, "datetakenunknown": 0, "ispublic": 1, "server": "3816", "datetaken": "2013-06-04 16:32:30", "isfriend": 0, "secret": "bd76929ec5", "tags": "chile valparaiso plazas monumentos vregion regiondevalparaiso", "width_z": "640", "owner": "14710056@N03", "title": "Valparaiso", "id": "9010691810", "height_z": "480"}, {"isfamily": 0, "url_z": "https://farm9.staticflickr.com/8089/8426380499_0078b40d3c_z.jpg", "datetakengranularity": "0", "farm": 9, "datetakenunknown": 0, "ispublic": 1, "server": "8089", "datetaken": "2013-01-24 14:17:56", "isfriend": 0, "secret": "0078b40d3c", "tags": "chile valparaiso monumentos vregion", "width_z": "640", "owner": "14710056@N03", "title": "Valparaiso", "id": "8426380499", "height_z": "480"}, {"isfamily": 0, "url_z": "https://farm5.staticflickr.com/4144/4994007597_8bcfa7923f_z.jpg", "datetakengranularity": "0", "farm": 5, "datetakenunknown": 0, "ispublic": 1, "server": "4144", "datetaken": "2010-04-18 02:27:04", "isfriend": 0, "secret": "8bcfa7923f", "tags": "chile valparaiso monumentos puertodevalparaiso regi\u00f3ndevalparaiso ciudaddevalparaiso monumentoalordcochrane thomasalexandercochrane lordalmirante", "width_z": "640", "owner": "11946814@N02", "title": "MONUMENTO A LORD COCHRANE", "id": "4994007597", "height_z": "480"}, {"isfamily": 0, "url_z": "https://farm5.staticflickr.com/4104/4994612886_bbaba45c1f_z.jpg", "datetakengranularity": "0", "farm": 5, "datetakenunknown": 0, "ispublic": 1, "server": "4104", "datetaken": "2010-04-18 02:26:57", "isfriend": 0, "secret": "bbaba45c1f", "tags": "chile valparaiso monumentos puertodevalparaiso regi\u00f3ndevalparaiso ciudaddevalparaiso monumentoalordcochrane thomasalexandercochrane lordalmirante", "width_z": "640", "owner": "11946814@N02", "title": "MONUMENTO A LORD COCHRANE", "id": "4994612886", "height_z": "480"}, {"isfamily": 0, "url_z": "https://farm5.staticflickr.com/4148/4994611714_3dee522a51_z.jpg", "datetakengranularity": "0", "farm": 5, "datetakenunknown": 0, "ispublic": 1, "server": "4148", "datetaken": "2010-04-18 02:26:30", "isfriend": 0, "secret": "3dee522a51", "tags": "chile valparaiso monumentos puertodevalparaiso regi\u00f3ndevalparaiso ciudaddevalparaiso monumentoalordcochrane thomasalexandercochrane lordalmirante", "width_z": "640", "owner": "11946814@N02", "title": "VALPARAISO", "id": "4994611714", "height_z": "480"}, {"isfamily": 0, "url_z": "https://farm5.staticflickr.com/4125/4994610526_1f3dc7e455_z.jpg", "datetakengranularity": "0", "farm": 5, "datetakenunknown": 0, "ispublic": 1, "server": "4125", "datetaken": "2010-04-18 02:26:19", "isfriend": 0, "secret": "1f3dc7e455", "tags": "chile valparaiso monumentos puertodevalparaiso regi\u00f3ndevalparaiso ciudaddevalparaiso monumentoalordcochrane thomasalexandercochrane lordalmirante", "width_z": "480", "owner": "11946814@N02", "title": "MONUMENTO A LORD COCHRANE", "id": "4994610526", "height_z": "640"}, {"isfamily": 0, "url_z": "https://farm5.staticflickr.com/4132/4994003099_d27f1c2c1d_z.jpg", "datetakengranularity": "0", "farm": 5, "datetakenunknown": 0, "ispublic": 1, "server": "4132", "datetaken": "2010-04-18 02:25:58", "isfriend": 0, "secret": "d27f1c2c1d", "tags": "chile valparaiso monumentos puertodevalparaiso regi\u00f3ndevalparaiso ciudaddevalparaiso monumentoalordcochrane thomasalexandercochrane lordalmirante", "width_z": "480", "owner": "11946814@N02", "title": "MONUMENTO A LORD COCHRANE", "id": "4994003099", "height_z": "640"}, {"isfamily": 0, "url_z": "https://farm5.staticflickr.com/4108/4994608078_4f2b7fd6df_z.jpg", "datetakengranularity": "0", "farm": 5, "datetakenunknown": 0, "ispublic": 1, "server": "4108", "datetaken": "2010-04-18 02:24:49", "isfriend": 0, "secret": "4f2b7fd6df", "tags": "chile valparaiso monumentos puertodevalparaiso regi\u00f3ndevalparaiso ciudaddevalparaiso monumentoalordcochrane thomasalexandercochrane lordalmirante", "width_z": "640", "owner": "11946814@N02", "title": "MONUMENTO A LORD COCHRANE", "id": "4994608078", "height_z": "480"}, {"isfamily": 0, "url_z": "https://farm5.staticflickr.com/4083/4994606836_ec510a0841_z.jpg", "datetakengranularity": "0", "farm": 5, "datetakenunknown": 0, "ispublic": 1, "server": "4083", "datetaken": "2010-04-18 02:24:41", "isfriend": 0, "secret": "ec510a0841", "tags": "chile valparaiso monumentos puertodevalparaiso regi\u00f3ndevalparaiso ciudaddevalparaiso monumentoalordcochrane thomasalexandercochrane lordalmirante", "width_z": "640", "owner": "11946814@N02", "title": "MONUMENTO A LORD COCHRANE", "id": "4994606836", "height_z": "480"}, {"isfamily": 0, "url_z": "https://farm5.staticflickr.com/4148/4994605574_b1794fb69f_z.jpg", "datetakengranularity": "0", "farm": 5, "datetakenunknown": 0, "ispublic": 1, "server": "4148", "datetaken": "2010-04-18 02:24:33", "isfriend": 0, "secret": "b1794fb69f", "tags": "chile valparaiso monumentos puertodevalparaiso regi\u00f3ndevalparaiso ciudaddevalparaiso monumentoalordcochrane thomasalexandercochrane lordalmirante", "width_z": "640", "owner": "11946814@N02", "title": "MONUMENTO A LORD COCHRANE", "id": "4994605574", "height_z": "480"}, {"isfamily": 0, "url_z": "https://farm5.staticflickr.com/4089/4993998001_53150ff8b8_z.jpg", "datetakengranularity": "0", "farm": 5, "datetakenunknown": 0, "ispublic": 1, "server": "4089", "datetaken": "2010-04-18 02:24:06", "isfriend": 0, "secret": "53150ff8b8", "tags": "chile valparaiso monumentos puertodevalparaiso regi\u00f3ndevalparaiso ciudaddevalparaiso monumentoalordcochrane thomasalexandercochrane lordalmirante", "width_z": "640", "owner": "11946814@N02", "title": "MONUMENTO A LORD COCHRANE", "id": "4993998001", "height_z": "480"}, {"isfamily": 0, "url_z": "https://farm5.staticflickr.com/4151/4994603040_4960952e20_z.jpg", "datetakengranularity": "0", "farm": 5, "datetakenunknown": 0, "ispublic": 1, "server": "4151", "datetaken": "2010-04-18 02:24:22", "isfriend": 0, "secret": "4960952e20", "tags": "chile valparaiso monumentos puertodevalparaiso regi\u00f3ndevalparaiso ciudaddevalparaiso monumentoalordcochrane thomasalexandercochrane lordalmirante", "width_z": "640", "owner": "11946814@N02", "title": "MONUMENTO A LORD COCHRANE", "id": "4994603040", "height_z": "480"}, {"isfamily": 0, "url_z": "https://farm5.staticflickr.com/4090/4993995547_d318bc4eb9_z.jpg", "datetakengranularity": "0", "farm": 5, "datetakenunknown": 0, "ispublic": 1, "server": "4090", "datetaken": "2010-04-18 02:24:12", "isfriend": 0, "secret": "d318bc4eb9", "tags": "chile valparaiso monumentos puertodevalparaiso regi\u00f3ndevalparaiso ciudaddevalparaiso monumentoalordcochrane thomasalexandercochrane lordalmirante", "width_z": "640", "owner": "11946814@N02", "title": "MONUMENTO A LORD COCHRANE", "id": "4993995547", "height_z": "480"}, {"isfamily": 0, "url_z": "https://farm5.staticflickr.com/4129/4994600506_239d1bea24_z.jpg", "datetakengranularity": "0", "farm": 5, "datetakenunknown": 0, "ispublic": 1, "server": "4129", "datetaken": "2010-04-18 02:23:44", "isfriend": 0, "secret": "239d1bea24", "tags": "chile valparaiso monumentos puertodevalparaiso regi\u00f3ndevalparaiso ciudaddevalparaiso monumentoalordcochrane thomasalexandercochrane lordalmirante", "width_z": "640", "owner": "11946814@N02", "title": "MONUMENTO A LORD COCHRANE", "id": "4994600506", "height_z": "480"}, {"isfamily": 0, "url_z": "https://farm5.staticflickr.com/4087/4994599220_c47fe944e8_z.jpg", "datetakengranularity": "0", "farm": 5, "datetakenunknown": 0, "ispublic": 1, "server": "4087", "datetaken": "2010-04-18 02:24:00", "isfriend": 0, "secret": "c47fe944e8", "tags": "chile valparaiso monumentos puertodevalparaiso regi\u00f3ndevalparaiso ciudaddevalparaiso monumentoalordcochrane thomasalexandercochrane lordalmirante", "width_z": "640", "owner": "11946814@N02", "title": "MONUMENTO A LORD COCHRANE", "id": "4994599220", "height_z": "480"}, {"isfamily": 0, "url_z": "https://farm5.staticflickr.com/4128/4994597888_47fbb4755f_z.jpg", "datetakengranularity": "0", "farm": 5, "datetakenunknown": 0, "ispublic": 1, "server": "4128", "datetaken": "2010-04-18 02:23:35", "isfriend": 0, "secret": "47fbb4755f", "tags": "chile valparaiso monumentos puertodevalparaiso regi\u00f3ndevalparaiso ciudaddevalparaiso monumentoalordcochrane thomasalexandercochrane lordalmirante", "width_z": "640", "owner": "11946814@N02", "title": "MONUMENTO A LORD COCHRANE", "id": "4994597888", "height_z": "480"}, {"isfamily": 0, "url_z": "https://farm5.staticflickr.com/4111/4993990199_bf198f3c6c_z.jpg", "datetakengranularity": "0", "farm": 5, "datetakenunknown": 0, "ispublic": 1, "server": "4111", "datetaken": "2010-04-18 02:23:23", "isfriend": 0, "secret": "bf198f3c6c", "tags": "chile valparaiso monumentos puertodevalparaiso regi\u00f3ndevalparaiso ciudaddevalparaiso monumentoalordcochrane thomasalexandercochrane lordalmirante", "width_z": "640", "owner": "11946814@N02", "title": "MONUMENTO A LORD COCHRANE", "id": "4993990199", "height_z": "480"}, {"isfamily": 0, "url_z": "https://farm5.staticflickr.com/4147/4994595256_d705b0703b_z.jpg", "datetakengranularity": "0", "farm": 5, "datetakenunknown": 0, "ispublic": 1, "server": "4147", "datetaken": "2010-04-18 02:23:09", "isfriend": 0, "secret": "d705b0703b", "tags": "chile valparaiso monumentos puertodevalparaiso regi\u00f3ndevalparaiso ciudaddevalparaiso monumentoalordcochrane thomasalexandercochrane lordalmirante", "width_z": "480", "owner": "11946814@N02", "title": "MONUMENTO A LORD COCHRANE", "id": "4994595256", "height_z": "640"}, {"isfamily": 0, "url_z": "https://farm5.staticflickr.com/4085/4993988037_5117af9be7_z.jpg", "datetakengranularity": "0", "farm": 5, "datetakenunknown": 0, "ispublic": 1, "server": "4085", "datetaken": "2010-04-18 02:22:59", "isfriend": 0, "secret": "5117af9be7", "tags": "chile valparaiso monumentos puertodevalparaiso regi\u00f3ndevalparaiso ciudaddevalparaiso monumentoalordcochrane thomasalexandercochrane lordalmirante", "width_z": "480", "owner": "11946814@N02", "title": "MONUMENTO A LORD COCHRANE", "id": "4993988037", "height_z": "640"}, {"isfamily": 0, "url_z": "https://farm5.staticflickr.com/4103/4993986983_3c8ba69cbf_z.jpg", "datetakengranularity": "0", "farm": 5, "datetakenunknown": 0, "ispublic": 1, "server": "4103", "datetaken": "2010-04-18 02:22:53", "isfriend": 0, "secret": "3c8ba69cbf", "tags": "chile valparaiso monumentos puertodevalparaiso regi\u00f3ndevalparaiso ciudaddevalparaiso monumentoalordcochrane thomasalexandercochrane lordalmirante", "width_z": "480", "owner": "11946814@N02", "title": "MONUMENTO A LORD COCHRANE", "id": "4993986983", "height_z": "640"}, {"isfamily": 0, "url_z": "https://farm5.staticflickr.com/4146/4993984541_0a1e6c418a_z.jpg", "datetakengranularity": "0", "farm": 5, "datetakenunknown": 0, "ispublic": 1, "server": "4146", "datetaken": "2010-04-18 02:22:32", "isfriend": 0, "secret": "0a1e6c418a", "tags": "chile valparaiso monumentos puertodevalparaiso regi\u00f3ndevalparaiso ciudaddevalparaiso monumentoalordcochrane thomasalexandercochrane lordalmirante", "width_z": "480", "owner": "11946814@N02", "title": "MONUMENTO A LORD COCHRANE", "id": "4993984541", "height_z": "640"}, {"isfamily": 0, "url_z": "https://farm5.staticflickr.com/4088/4993983303_42e67e1251_z.jpg", "datetakengranularity": "0", "farm": 5, "datetakenunknown": 0, "ispublic": 1, "server": "4088", "datetaken": "2010-04-18 02:21:46", "isfriend": 0, "secret": "42e67e1251", "tags": "chile valparaiso monumentos puertodevalparaiso regi\u00f3ndevalparaiso ciudaddevalparaiso monumentoalordcochrane thomasalexandercochrane lordalmirante", "width_z": "640", "owner": "11946814@N02", "title": "MONUMENTO A LORD COCHRANE", "id": "4993983303", "height_z": "480"}, {"isfamily": 0, "url_z": "https://farm5.staticflickr.com/4146/4993982067_20293bf6bc_z.jpg", "datetakengranularity": "0", "farm": 5, "datetakenunknown": 0, "ispublic": 1, "server": "4146", "datetaken": "2010-04-18 02:22:13", "isfriend": 0, "secret": "20293bf6bc", "tags": "chile valparaiso monumentos puertodevalparaiso regi\u00f3ndevalparaiso ciudaddevalparaiso monumentoalordcochrane thomasalexandercochrane lordalmirante", "width_z": "480", "owner": "11946814@N02", "title": "MONUMENTO A LORD COCHRANE", "id": "4993982067", "height_z": "640"}, {"isfamily": 0, "url_z": "https://farm5.staticflickr.com/4112/4993980845_3e089d9a40_z.jpg", "datetakengranularity": "0", "farm": 5, "datetakenunknown": 0, "ispublic": 1, "server": "4112", "datetaken": "2010-04-18 02:22:01", "isfriend": 0, "secret": "3e089d9a40", "tags": "chile valparaiso monumentos puertodevalparaiso regi\u00f3ndevalparaiso ciudaddevalparaiso monumentoalordcochrane thomasalexandercochrane lordalmirante", "width_z": "480", "owner": "11946814@N02", "title": "MONUMENTO A LORD COCHRANE", "id": "4993980845", "height_z": "640"}, {"isfamily": 0, "url_z": "https://farm5.staticflickr.com/4132/4993979587_931e64812a_z.jpg", "datetakengranularity": "0", "farm": 5, "datetakenunknown": 0, "ispublic": 1, "server": "4132", "datetaken": "2010-04-18 02:21:25", "isfriend": 0, "secret": "931e64812a", "tags": "chile valparaiso monumentos puertodevalparaiso regi\u00f3ndevalparaiso ciudaddevalparaiso monumentoalordcochrane thomasalexandercochrane lordalmirante", "width_z": "640", "owner": "11946814@N02", "title": "MONUMENTO A LORD COCHRANE", "id": "4993979587", "height_z": "480"}, {"isfamily": 0, "url_z": "https://farm5.staticflickr.com/4113/4993978215_48eb4dff77_z.jpg", "datetakengranularity": "0", "farm": 5, "datetakenunknown": 0, "ispublic": 1, "server": "4113", "datetaken": "2010-04-18 02:21:04", "isfriend": 0, "secret": "48eb4dff77", "tags": "chile valparaiso monumentos puertodevalparaiso regi\u00f3ndevalparaiso ciudaddevalparaiso monumentoalordcochrane thomasalexandercochrane lordalmirante", "width_z": "480", "owner": "11946814@N02", "title": "MONUMENTO A LORD COCHRANE", "id": "4993978215", "height_z": "640"}, {"isfamily": 0, "url_z": "https://farm5.staticflickr.com/4083/4994583318_db15aba55a_z.jpg", "datetakengranularity": "0", "farm": 5, "datetakenunknown": 0, "ispublic": 1, "server": "4083", "datetaken": "2010-04-18 02:19:39", "isfriend": 0, "secret": "db15aba55a", "tags": "chile valparaiso monumentos puertodevalparaiso regi\u00f3ndevalparaiso ciudaddevalparaiso monumentoalordcochrane thomasalexandercochrane lordalmirante", "width_z": "640", "owner": "11946814@N02", "title": "MONUMENTO A LORD COCHRANE", "id": "4994583318", "height_z": "480"}, {"isfamily": 0, "url_z": "https://farm5.staticflickr.com/4087/4994582184_9868b760fb_z.jpg", "datetakengranularity": "0", "farm": 5, "datetakenunknown": 0, "ispublic": 1, "server": "4087", "datetaken": "2010-04-18 02:20:17", "isfriend": 0, "secret": "9868b760fb", "tags": "chile valparaiso monumentos puertodevalparaiso regi\u00f3ndevalparaiso ciudaddevalparaiso monumentoalordcochrane thomasalexandercochrane lordalmirante", "width_z": "480", "owner": "11946814@N02", "title": "MONUMENTO A LORD COCHRANE", "id": "4994582184", "height_z": "640"}, {"isfamily": 0, "url_z": "https://farm5.staticflickr.com/4103/4993974639_52d345c5ae_z.jpg", "datetakengranularity": "0", "farm": 5, "datetakenunknown": 0, "ispublic": 1, "server": "4103", "datetaken": "2010-04-18 02:19:48", "isfriend": 0, "secret": "52d345c5ae", "tags": "chile valparaiso monumentos puertodevalparaiso regi\u00f3ndevalparaiso ciudaddevalparaiso monumentoalordcochrane thomasalexandercochrane lordalmirante", "width_z": "640", "owner": "11946814@N02", "title": "MONUMENTO A LORD COCHRANE", "id": "4993974639", "height_z": "480"}, {"isfamily": 0, "url_z": "https://farm5.staticflickr.com/4130/4993973289_2b72ba125e_z.jpg", "datetakengranularity": "0", "farm": 5, "datetakenunknown": 0, "ispublic": 1, "server": "4130", "datetaken": "2010-04-18 02:19:59", "isfriend": 0, "secret": "2b72ba125e", "tags": "chile valparaiso monumentos puertodevalparaiso regi\u00f3ndevalparaiso ciudaddevalparaiso monumentoalordcochrane thomasalexandercochrane lordalmirante", "width_z": "640", "owner": "11946814@N02", "title": "MONUMENTO A LORD COCHRANE", "id": "4993973289", "height_z": "480"}, {"isfamily": 0, "url_z": "https://farm5.staticflickr.com/4087/4994578400_8c285aef63_z.jpg", "datetakengranularity": "0", "farm": 5, "datetakenunknown": 0, "ispublic": 1, "server": "4087", "datetaken": "2010-04-18 02:19:27", "isfriend": 0, "secret": "8c285aef63", "tags": "chile valparaiso monumentos puertodevalparaiso regi\u00f3ndevalparaiso ciudaddevalparaiso monumentoalordcochrane thomasalexandercochrane lordalmirante", "width_z": "640", "owner": "11946814@N02", "title": "MONUMENTO A LORD COCHRANE", "id": "4994578400", "height_z": "480"}, {"isfamily": 0, "url_z": "https://farm5.staticflickr.com/4127/4994577100_1c4ce1fced_z.jpg", "datetakengranularity": "0", "farm": 5, "datetakenunknown": 0, "ispublic": 1, "server": "4127", "datetaken": "2010-04-18 02:19:10", "isfriend": 0, "secret": "1c4ce1fced", "tags": "chile valparaiso monumentos puertodevalparaiso regi\u00f3ndevalparaiso ciudaddevalparaiso monumentoalordcochrane thomasalexandercochrane lordalmirante", "width_z": "640", "owner": "11946814@N02", "title": "MONUMENTO A LORD COCHRANE", "id": "4994577100", "height_z": "480"}, {"isfamily": 0, "url_z": "https://farm5.staticflickr.com/4107/4993969181_d5195fd427_z.jpg", "datetakengranularity": "0", "farm": 5, "datetakenunknown": 0, "ispublic": 1, "server": "4107", "datetaken": "2010-04-18 02:19:18", "isfriend": 0, "secret": "d5195fd427", "tags": "chile valparaiso monumentos puertodevalparaiso regi\u00f3ndevalparaiso ciudaddevalparaiso monumentoalordcochrane thomasalexandercochrane lordalmirante", "width_z": "640", "owner": "11946814@N02", "title": "MONUMENTO A LORD COCHRANE", "id": "4993969181", "height_z": "480"}, {"isfamily": 0, "url_z": "https://farm5.staticflickr.com/4124/4994574336_2caed07d84_z.jpg", "datetakengranularity": "0", "farm": 5, "datetakenunknown": 0, "ispublic": 1, "server": "4124", "datetaken": "2010-04-18 02:20:38", "isfriend": 0, "secret": "2caed07d84", "tags": "chile valparaiso monumentos puertodevalparaiso regi\u00f3ndevalparaiso ciudaddevalparaiso monumentoalordcochrane thomasalexandercochrane lordalmirante", "width_z": "480", "owner": "11946814@N02", "title": "MONUMENTO A LORD COCHRANE", "id": "4994574336", "height_z": "640"}, {"isfamily": 0, "url_z": "https://farm5.staticflickr.com/4111/4994573068_3bc266e1c0_z.jpg", "datetakengranularity": "0", "farm": 5, "datetakenunknown": 0, "ispublic": 1, "server": "4111", "datetaken": "2010-04-18 02:20:52", "isfriend": 0, "secret": "3bc266e1c0", "tags": "chile valparaiso monumentos puertodevalparaiso regi\u00f3ndevalparaiso ciudaddevalparaiso monumentoalordcochrane thomasalexandercochrane lordalmirante", "width_z": "480", "owner": "11946814@N02", "title": "MONUMENTO A LORD COCHRANE", "id": "4994573068", "height_z": "640"}, {"isfamily": 0, "url_z": "https://farm5.staticflickr.com/4109/4993965155_5333ece840_z.jpg", "datetakengranularity": "0", "farm": 5, "datetakenunknown": 0, "ispublic": 1, "server": "4109", "datetaken": "2010-04-18 02:18:57", "isfriend": 0, "secret": "5333ece840", "tags": "chile valparaiso monumentos puertodevalparaiso regi\u00f3ndevalparaiso ciudaddevalparaiso monumentoalordcochrane thomasalexandercochrane lordalmirante", "width_z": "640", "owner": "11946814@N02", "title": "MONUMENTO A LORD COCHRANE", "id": "4993965155", "height_z": "480"}, {"isfamily": 0, "url_z": "https://farm5.staticflickr.com/4090/4994570126_732fdbf811_z.jpg", "datetakengranularity": "0", "farm": 5, "datetakenunknown": 0, "ispublic": 1, "server": "4090", "datetaken": "2010-04-18 02:18:42", "isfriend": 0, "secret": "732fdbf811", "tags": "chile valparaiso monumentos puertodevalparaiso regi\u00f3ndevalparaiso ciudaddevalparaiso monumentoalordcochrane thomasalexandercochrane lordalmirante", "width_z": "640", "owner": "11946814@N02", "title": "MONUMENTO A LORD COCHRANE", "id": "4994570126", "height_z": "480"}, {"isfamily": 0, "url_z": "https://farm5.staticflickr.com/4109/4994568312_44d8be9461_z.jpg", "datetakengranularity": "0", "farm": 5, "datetakenunknown": 0, "ispublic": 1, "server": "4109", "datetaken": "2010-04-18 02:17:36", "isfriend": 0, "secret": "44d8be9461", "tags": "chile valparaiso monumentos puertodevalparaiso regi\u00f3ndevalparaiso ciudaddevalparaiso monumentoalordcochrane thomasalexandercochrane lordalmirante", "width_z": "640", "owner": "11946814@N02", "title": "VALPARAISO", "id": "4994568312", "height_z": "480"}, {"isfamily": 0, "url_z": "https://farm5.staticflickr.com/4131/4993960455_bf35fb299b_z.jpg", "datetakengranularity": "0", "farm": 5, "datetakenunknown": 0, "ispublic": 1, "server": "4131", "datetaken": "2010-04-18 02:18:37", "isfriend": 0, "secret": "bf35fb299b", "tags": "chile valparaiso monumentos puertodevalparaiso regi\u00f3ndevalparaiso ciudaddevalparaiso monumentoalordcochrane thomasalexandercochrane lordalmirante", "width_z": "640", "owner": "11946814@N02", "title": "MONUMENTO A LORD COCHRANE", "id": "4993960455", "height_z": "480"}], "pages": 2, "total": "84", "page": 1, "perpage": 50}, "stat": "ok"}