{"photos": {"photo": [{"isfamily": 0, "width_m": "500", "datetakengranularity": "0", "farm": 9, "height_m": "333", "title": "DSC_0249", "secret": "ea271f58e5", "server": "8064", "datetaken": "2016-08-28 18:13:25", "isfriend": 0, "url_m": "https://farm9.staticflickr.com/8064/29487090481_ea271f58e5.jpg", "ispublic": 1, "datetakenunknown": "0", "owner": "78058225@N08", "id": "29487090481", "dateupload": "1473444431"}, {"isfamily": 0, "width_m": "500", "datetakengranularity": "0", "farm": 9, "height_m": "379", "title": "DSC_0257", "secret": "68f141d346", "server": "8341", "datetaken": "2016-08-28 18:16:04", "isfriend": 0, "url_m": "https://farm9.staticflickr.com/8341/29487084321_68f141d346.jpg", "ispublic": 1, "datetakenunknown": "0", "owner": "78058225@N08", "id": "29487084321", "dateupload": "1473444432"}, {"isfamily": 0, "width_m": "356", "datetakengranularity": "0", "farm": 9, "height_m": "500", "title": "DSC_0264", "secret": "637e1a65de", "server": "8464", "datetaken": "2016-08-28 18:23:32", "isfriend": 0, "url_m": "https://farm9.staticflickr.com/8464/29487078861_637e1a65de.jpg", "ispublic": 1, "datetakenunknown": "0", "owner": "78058225@N08", "id": "29487078861", "dateupload": "1473444433"}, {"isfamily": 0, "width_m": "500", "datetakengranularity": "0", "farm": 9, "height_m": "333", "title": "DSC_0268", "secret": "10ab26c609", "server": "8635", "datetaken": "2016-08-28 18:28:13", "isfriend": 0, "url_m": "https://farm9.staticflickr.com/8635/28944038773_10ab26c609.jpg", "ispublic": 1, "datetakenunknown": "0", "owner": "78058225@N08", "id": "28944038773", "dateupload": "1473444434"}, {"isfamily": 0, "width_m": "500", "datetakengranularity": "0", "farm": 9, "height_m": "333", "title": "DSC_0285", "secret": "d7aa4d3396", "server": "8490", "datetaken": "2016-08-28 18:44:03", "isfriend": 0, "url_m": "https://farm9.staticflickr.com/8490/28944028483_d7aa4d3396.jpg", "ispublic": 1, "datetakenunknown": "0", "owner": "78058225@N08", "id": "28944028483", "dateupload": "1473444435"}, {"isfamily": 0, "width_m": "333", "datetakengranularity": "0", "farm": 8, "height_m": "500", "title": "DSC_0289", "secret": "ec9ae93666", "server": "7776", "datetaken": "2016-08-28 18:47:36", "isfriend": 0, "url_m": "https://farm8.staticflickr.com/7776/28944017573_ec9ae93666.jpg", "ispublic": 1, "datetakenunknown": "0", "owner": "78058225@N08", "id": "28944017573", "dateupload": "1473444436"}, {"isfamily": 0, "width_m": "333", "datetakengranularity": "0", "farm": 9, "height_m": "500", "title": "DSC_0290", "secret": "9bcfa44c22", "server": "8554", "datetaken": "2016-08-28 18:48:58", "isfriend": 0, "url_m": "https://farm9.staticflickr.com/8554/29567489775_9bcfa44c22.jpg", "ispublic": 1, "datetakenunknown": "0", "owner": "78058225@N08", "id": "29567489775", "dateupload": "1473444436"}, {"isfamily": 0, "width_m": "500", "datetakengranularity": "0", "farm": 9, "height_m": "333", "title": "DSC_0050", "secret": "0d1c1498f7", "server": "8387", "datetaken": "2016-08-21 15:23:04", "isfriend": 0, "url_m": "https://farm9.staticflickr.com/8387/29567484365_0d1c1498f7.jpg", "ispublic": 1, "datetakenunknown": "0", "owner": "78058225@N08", "id": "29567484365", "dateupload": "1473444437"}, {"isfamily": 0, "width_m": "500", "datetakengranularity": "0", "farm": 9, "height_m": "333", "title": "DSC_0065", "secret": "6fa693f8fe", "server": "8498", "datetaken": "2016-08-21 15:28:03", "isfriend": 0, "url_m": "https://farm9.staticflickr.com/8498/28941876164_6fa693f8fe.jpg", "ispublic": 1, "datetakenunknown": "0", "owner": "78058225@N08", "id": "28941876164", "dateupload": "1473444438"}, {"isfamily": 0, "width_m": "500", "datetakengranularity": "0", "farm": 9, "height_m": "333", "title": "DSC_0069", "secret": "e4d89b3aa6", "server": "8006", "datetaken": "2016-08-21 15:28:30", "isfriend": 0, "url_m": "https://farm9.staticflickr.com/8006/29487055241_e4d89b3aa6.jpg", "ispublic": 1, "datetakenunknown": "0", "owner": "78058225@N08", "id": "29487055241", "dateupload": "1473444438"}, {"isfamily": 0, "width_m": "500", "datetakengranularity": "0", "farm": 8, "height_m": "333", "title": "DSC_0075", "secret": "586a3fe840", "server": "7775", "datetaken": "2016-08-21 15:36:55", "isfriend": 0, "url_m": "https://farm8.staticflickr.com/7775/29487053601_586a3fe840.jpg", "ispublic": 1, "datetakenunknown": "0", "owner": "78058225@N08", "id": "29487053601", "dateupload": "1473444439"}, {"isfamily": 0, "width_m": "500", "datetakengranularity": "0", "farm": 9, "height_m": "333", "title": "DSC_0081", "secret": "cd2ed6d6aa", "server": "8530", "datetaken": "2016-08-21 15:37:25", "isfriend": 0, "url_m": "https://farm9.staticflickr.com/8530/28943975633_cd2ed6d6aa.jpg", "ispublic": 1, "datetakenunknown": "0", "owner": "78058225@N08", "id": "28943975633", "dateupload": "1473444440"}, {"isfamily": 0, "width_m": "500", "datetakengranularity": "0", "farm": 9, "height_m": "333", "title": "DSC_0086", "secret": "b33e9e468d", "server": "8477", "datetaken": "2016-08-21 15:37:48", "isfriend": 0, "url_m": "https://farm9.staticflickr.com/8477/28943969453_b33e9e468d.jpg", "ispublic": 1, "datetakenunknown": "0", "owner": "78058225@N08", "id": "28943969453", "dateupload": "1473444441"}, {"isfamily": 0, "width_m": "500", "datetakengranularity": "0", "farm": 9, "height_m": "333", "title": "DSC_0095", "secret": "089c54f591", "server": "8416", "datetaken": "2016-08-28 15:59:20", "isfriend": 0, "url_m": "https://farm9.staticflickr.com/8416/28943962543_089c54f591.jpg", "ispublic": 1, "datetakenunknown": "0", "owner": "78058225@N08", "id": "28943962543", "dateupload": "1473444442"}, {"isfamily": 0, "width_m": "500", "datetakengranularity": "0", "farm": 9, "height_m": "333", "title": "DSC_0099", "secret": "3f0846daa6", "server": "8453", "datetaken": "2016-08-28 16:55:38", "isfriend": 0, "url_m": "https://farm9.staticflickr.com/8453/29277397370_3f0846daa6.jpg", "ispublic": 1, "datetakenunknown": "0", "owner": "78058225@N08", "id": "29277397370", "dateupload": "1473444442"}, {"isfamily": 0, "width_m": "500", "datetakengranularity": "0", "farm": 9, "height_m": "333", "title": "DSC_0101", "secret": "01ccd2e24e", "server": "8135", "datetaken": "2016-08-28 16:56:01", "isfriend": 0, "url_m": "https://farm9.staticflickr.com/8135/29277390710_01ccd2e24e.jpg", "ispublic": 1, "datetakenunknown": "0", "owner": "78058225@N08", "id": "29277390710", "dateupload": "1473444443"}, {"isfamily": 0, "width_m": "500", "datetakengranularity": "0", "farm": 9, "height_m": "333", "title": "DSC_0113", "secret": "e79bd782af", "server": "8156", "datetaken": "2016-08-28 17:08:27", "isfriend": 0, "url_m": "https://farm9.staticflickr.com/8156/29487016231_e79bd782af.jpg", "ispublic": 1, "datetakenunknown": "0", "owner": "78058225@N08", "id": "29487016231", "dateupload": "1473444443"}, {"isfamily": 0, "width_m": "500", "datetakengranularity": "0", "farm": 9, "height_m": "333", "title": "DSC_0127", "secret": "57d0c91529", "server": "8199", "datetaken": "2016-08-28 17:19:43", "isfriend": 0, "url_m": "https://farm9.staticflickr.com/8199/29457763942_57d0c91529.jpg", "ispublic": 1, "datetakenunknown": "0", "owner": "78058225@N08", "id": "29457763942", "dateupload": "1473444444"}, {"isfamily": 0, "width_m": "500", "datetakengranularity": "0", "farm": 9, "height_m": "333", "title": "DSC_0134", "secret": "b093edc8c6", "server": "8252", "datetaken": "2016-08-28 17:24:48", "isfriend": 0, "url_m": "https://farm9.staticflickr.com/8252/29567420195_b093edc8c6.jpg", "ispublic": 1, "datetakenunknown": "0", "owner": "78058225@N08", "id": "29567420195", "dateupload": "1473444444"}, {"isfamily": 0, "width_m": "500", "datetakengranularity": "0", "farm": 9, "height_m": "357", "title": "Murales", "secret": "b3fd06700c", "server": "8305", "datetaken": "2016-08-09 17:46:05", "isfriend": 0, "url_m": "https://farm9.staticflickr.com/8305/29632230795_b3fd06700c.jpg", "ispublic": 1, "datetakenunknown": "0", "owner": "66821387@N00", "id": "29632230795", "dateupload": "1473688676"}], "pages": 50, "total": "993", "page": 1, "perpage": 20}, "stat": "ok"}