{"photos": {"photo": [{"isfamily": 0, "url_z": "https://farm9.staticflickr.com/8760/29535276402_6e39809dee_z.jpg", "datetakengranularity": 0, "farm": 9, "datetakenunknown": "1", "ispublic": 1, "server": "8760", "datetaken": "2016-09-12 20:22:09", "isfriend": 0, "secret": "6e39809dee", "tags": "valparaiso tag amigos friendship analog chile beach playa skateboarding for fun", "width_z": "640", "owner": "126941924@N08", "title": "paseos", "id": "29535276402", "height_z": "446"}, {"isfamily": 0, "url_z": "https://farm9.staticflickr.com/8132/28739907543_4615aec38c_z.jpg", "datetakengranularity": "0", "farm": 9, "datetakenunknown": "0", "ispublic": 1, "server": "8132", "datetaken": "2016-08-27 16:35:30", "isfriend": 0, "secret": "4615aec38c", "tags": "dji djiphantom djiphantom3 djiphantom3advanced phantom3 chile algarrobo elyeco yeco playa beach mar sea ocean pacificocean oceanopacifico valparaiso regiondevalparaiso mountain monta\u00f1a hill sand rock forest sky drone quadcopter cuadricoptero aerial aerea clouds cloud nubes panoramic panoramica mirasol tunquen waves olas", "width_z": "640", "owner": "34190175@N08", "title": "DJI_0110_CC", "id": "28739907543", "height_z": "479"}, {"isfamily": 0, "url_z": "https://farm9.staticflickr.com/8361/29262224801_9c5678bf63_z.jpg", "datetakengranularity": "0", "farm": 9, "datetakenunknown": "0", "ispublic": 1, "server": "8361", "datetaken": "2016-08-28 17:15:36", "isfriend": 0, "secret": "9c5678bf63", "tags": "velero mar oceano navegar valparaiso chile sheep sea ocean beach playa", "width_z": "640", "owner": "144309779@N02", "title": "Supremo III", "id": "29262224801", "height_z": "427"}, {"isfamily": 0, "url_z": "https://farm9.staticflickr.com/8393/29253290621_10359472fe_z.jpg", "datetakengranularity": 0, "farm": 9, "datetakenunknown": "1", "ispublic": 1, "server": "8393", "datetaken": "2016-08-29 23:28:55", "isfriend": 0, "secret": "10359472fe", "tags": "cielo sunset oceano ocean valparaiso chile beach playa mar agua nubes arrebol sky analog an\u00e1loga", "width_z": "640", "owner": "126941924@N08", "title": "arrebol", "id": "29253290621", "height_z": "447"}, {"isfamily": 0, "url_z": "https://farm9.staticflickr.com/8119/28726230580_5acac4bc80_z.jpg", "datetakengranularity": "0", "farm": 9, "datetakenunknown": "0", "ispublic": 1, "server": "8119", "datetaken": "2016-08-14 17:41:22", "isfriend": 0, "secret": "5acac4bc80", "tags": "canon canont5i 35mm photo photography vsco vscocam vregion valparaiso vi\u00f1adelmar vi\u00f1a del mar vinadelmar vina vista mirador cielo edificios ciudad playa oc\u00e9ano d\u00eda fotograf\u00eda fot\u00f3grafo view lookout heaven buildings city sea beach ocean day photograph photographer", "width_z": "640", "owner": "75353693@N02", "title": "Vista desde el Paseo Mirador Jorge Alessandri - Vi\u00f1a del Mar", "id": "28726230580", "height_z": "427"}, {"isfamily": 0, "url_z": "https://farm9.staticflickr.com/8194/29012196775_5448d6c54e_z.jpg", "datetakengranularity": "0", "farm": 9, "datetakenunknown": "0", "ispublic": 1, "server": "8194", "datetaken": "2016-08-14 17:43:25", "isfriend": 0, "secret": "5448d6c54e", "tags": "canon canont5i 35mm photo photography vsco vscocam vregion valparaiso vi\u00f1adelmar vi\u00f1a del mar vinadelmar vina friend amigo guy person boy chico persona vista mirador cielo edificios ciudad playa oc\u00e9ano d\u00eda fotograf\u00eda fot\u00f3grafo view lookout heaven buildings city sea beach ocean day photograph photographer", "width_z": "640", "owner": "75353693@N02", "title": "Paseo Mirador Jorge Alessandri - Vi\u00f1a del Mar", "id": "29012196775", "height_z": "427"}, {"isfamily": 0, "url_z": "https://farm9.staticflickr.com/8374/27975544814_6be7a882e5_z.jpg", "datetakengranularity": 0, "farm": 9, "datetakenunknown": "1", "ispublic": 1, "server": "8374", "datetaken": "2016-07-27 15:53:56", "isfriend": 0, "secret": "6be7a882e5", "tags": "beach playa paisaje vsco chile valparaiso colores colors graffitis mirador lookout", "width_z": "640", "owner": "144095930@N04", "title": "13", "id": "27975544814", "height_z": "480"}, {"isfamily": 0, "url_z": "https://farm8.staticflickr.com/7305/27921746350_b56bf22431_z.jpg", "datetakengranularity": "0", "farm": 8, "datetakenunknown": "0", "ispublic": 1, "server": "7305", "datetaken": "2016-07-08 19:47:52", "isfriend": 0, "secret": "b56bf22431", "tags": "longexposure mar paisaje landscape lighttrails beach cityscape vinadelmar valparaiso chile playa", "width_z": "640", "owner": "41130674@N04", "title": "Lightspeed from Re\u00f1aca to Vi\u00f1a", "id": "27921746350", "height_z": "427"}, {"isfamily": 0, "url_z": "https://farm8.staticflickr.com/7451/27526834070_4ea9050493_z.jpg", "datetakengranularity": "0", "farm": 8, "datetakenunknown": "0", "ispublic": 1, "server": "7451", "datetaken": "2016-06-20 12:06:28", "isfriend": 0, "secret": "4ea9050493", "tags": "chile trip travel sea beach america landscape valparaiso see muelle mar playa paisaje latinoamerica valpo sudamerica algarrobo suramerica elcanelo vsco vscocam vscogrid", "width_z": "640", "owner": "44697289@N03", "title": "Camino al andar", "id": "27526834070", "height_z": "427"}, {"isfamily": 0, "url_z": "https://farm8.staticflickr.com/7792/27193808843_dd8d89323e_z.jpg", "datetakengranularity": "0", "farm": 8, "datetakenunknown": "0", "ispublic": 1, "server": "7792", "datetaken": "2016-06-20 12:19:12", "isfriend": 0, "secret": "dd8d89323e", "tags": "ocean chile trip travel viaje autumn winter sea cloud beach nature clouds america landscape valparaiso see mar cloudy playa minimal traveller nubes latinoamerica oto\u00f1o invierno nublado minimalism minimalismo nube valpo oceano sudamerica traveler algarrobo suramerica viajero oceanopacifico vsco vscocam vscogrid", "width_z": "640", "owner": "44697289@N03", "title": "La eternidad se compone de \"ahoras\"", "id": "27193808843", "height_z": "427"}, {"isfamily": 0, "url_z": "https://farm8.staticflickr.com/7360/27805121865_26b3f89475_z.jpg", "datetakengranularity": "0", "farm": 8, "datetakenunknown": "0", "ispublic": 1, "server": "7360", "datetaken": "2016-06-20 12:15:12", "isfriend": 0, "secret": "26b3f89475", "tags": "ocean chile door trip travel winter sea cloud beach clouds america landscape reja valparaiso see muelle mar doors open cloudy turquoise playa bandera invierno valpo oceano sudamerica algarrobo puertas suramerica porton turquesa rejilla elcanelo oceanopacifico bander\u00edn vsco vscocam vscogrid", "width_z": "427", "owner": "44697289@N03", "title": "doors", "id": "27805121865", "height_z": "640"}, {"isfamily": 0, "url_z": "https://farm8.staticflickr.com/7648/27770561166_e9d9f09161_z.jpg", "datetakengranularity": "0", "farm": 8, "datetakenunknown": "0", "ispublic": 1, "server": "7648", "datetaken": "2016-06-20 12:10:51", "isfriend": 0, "secret": "e9d9f09161", "tags": "ocean chile trip travel winter sea cloud cold beach clouds america landscape valparaiso see muelle mar cloudy turquoise playa nubes latinoamerica invierno nublado frio nube valpo oceano sudamerica algarrobo suramerica turquesa elcanelo oceanopacifico vsco vscocam vscogrid", "width_z": "360", "owner": "44697289@N03", "title": "turquesas", "id": "27770561166", "height_z": "640"}, {"isfamily": 0, "url_z": "https://farm8.staticflickr.com/7204/27684387892_a1eb101bd7_z.jpg", "datetakengranularity": "0", "farm": 8, "datetakenunknown": "0", "ispublic": 1, "server": "7204", "datetaken": "2016-06-17 11:48:35", "isfriend": 0, "secret": "a1eb101bd7", "tags": "chile sea beach valparaiso sand pacific playa vi\u00f1adelmar", "width_z": "640", "owner": "13184537@N05", "title": "Avenida Espa\u00f1a", "id": "27684387892", "height_z": "401"}, {"isfamily": 0, "url_z": "https://farm8.staticflickr.com/7331/27384011966_f5efe3ddbf_z.jpg", "datetakengranularity": "0", "farm": 8, "datetakenunknown": "0", "ispublic": 1, "server": "7331", "datetaken": "2016-06-01 19:21:20", "isfriend": 0, "secret": "f5efe3ddbf", "tags": "chile beach night clouds landscape atardecer valparaiso playa re\u00f1aca", "width_z": "640", "owner": "25705783@N06", "title": "Re\u00f1aca", "id": "27384011966", "height_z": "427"}, {"isfamily": 0, "url_z": "https://farm8.staticflickr.com/7757/26869135221_bbf585611e_z.jpg", "datetakengranularity": "0", "farm": 8, "datetakenunknown": "0", "ispublic": 1, "server": "7757", "datetaken": "2016-05-08 17:49:02", "isfriend": 0, "secret": "bbf585611e", "tags": "chile travel viaje sun sol beach ex valparaiso botes dance day candy sunday centro esculturas playa dia colores mothers cerro alegre valpara\u00edso flamenco cultura mothersday madre cultural edit dulces carcel cerroalegre fz150 lumixfz150", "width_z": "640", "owner": "141782850@N07", "title": "Esculturas Centro Cultural de Valpara\u00edso, Ex C\u00e1rcel", "id": "26869135221", "height_z": "359"}, {"isfamily": 0, "url_z": "https://farm2.staticflickr.com/1502/25744983576_a3f53f8894_z.jpg", "datetakengranularity": "0", "farm": 2, "datetakenunknown": "0", "ispublic": 1, "server": "1502", "datetaken": "2015-02-28 13:52:15", "isfriend": 0, "secret": "a3f53f8894", "tags": "chile beach valparaiso playa ritoque concon quintero", "width_z": "640", "owner": "23397487@N05", "title": "En Ritoque", "id": "25744983576", "height_z": "427"}, {"isfamily": 0, "url_z": "https://farm2.staticflickr.com/1568/25771035885_4bb46beaf5_z.jpg", "datetakengranularity": "0", "farm": 2, "datetakenunknown": "0", "ispublic": 1, "server": "1568", "datetaken": "2015-02-28 13:52:34", "isfriend": 0, "secret": "4bb46beaf5", "tags": "chile beach valparaiso crab playa ritoque cangrejo concon quintero", "width_z": "640", "owner": "23397487@N05", "title": "En Ritoque", "id": "25771035885", "height_z": "427"}, {"isfamily": 0, "url_z": "https://farm2.staticflickr.com/1695/25140564894_91d9d3539e_z.jpg", "datetakengranularity": "0", "farm": 2, "datetakenunknown": "0", "ispublic": 1, "server": "1695", "datetaken": "2015-02-28 18:55:30", "isfriend": 0, "secret": "91d9d3539e", "tags": "chile dog beach valparaiso playa perro ritoque concon quintero", "width_z": "640", "owner": "23397487@N05", "title": "Tif\u00f3n", "id": "25140564894", "height_z": "427"}, {"isfamily": 0, "url_z": "https://farm2.staticflickr.com/1492/25000541534_1fc9ba191d_z.jpg", "datetakengranularity": "0", "farm": 2, "datetakenunknown": "0", "ispublic": 1, "server": "1492", "datetaken": "2016-02-27 20:05:11", "isfriend": 0, "secret": "1fc9ba191d", "tags": "chile sunset sea summer sun color sol beach wonderful valparaiso see colorful awesome playa wanderlust verano latinoamerica ocaso anochecer valpo algarrobo chilito vsco vscocam", "width_z": "640", "owner": "44697289@N03", "title": "arriba quemando el sol", "id": "25000541534", "height_z": "360"}, {"isfamily": 0, "url_z": "https://farm2.staticflickr.com/1444/23934600153_77b40cc686_z.jpg", "datetakengranularity": "0", "farm": 2, "datetakenunknown": "0", "ispublic": 1, "server": "1444", "datetaken": "2015-01-01 13:58:01", "isfriend": 0, "secret": "77b40cc686", "tags": "chile beach valparaiso mar playa", "width_z": "640", "owner": "96996378@N07", "title": "Playa Las Torpederas", "id": "23934600153", "height_z": "360"}, {"isfamily": 0, "url_z": "https://farm6.staticflickr.com/5717/22817190953_4222d584df_z.jpg", "datetakengranularity": "0", "farm": 6, "datetakenunknown": "0", "ispublic": 1, "server": "5717", "datetaken": "2014-02-26 20:56:35", "isfriend": 0, "secret": "4222d584df", "tags": "chile sea summer costa beach valparaiso mar seaside playa citylights verano re\u00f1aca vi\u00f1adelmar", "width_z": "640", "owner": "114082686@N08", "title": "Early Evening at Re\u00f1aca", "id": "22817190953", "height_z": "360"}, {"isfamily": 0, "url_z": "https://farm1.staticflickr.com/611/22817187663_910123a582_z.jpg", "datetakengranularity": "0", "farm": 1, "datetakenunknown": "0", "ispublic": 1, "server": "611", "datetaken": "2014-02-27 21:08:52", "isfriend": 0, "secret": "910123a582", "tags": "chile sea summer costa beach valparaiso mar seaside playa citylights verano re\u00f1aca vi\u00f1adelmar", "width_z": "640", "owner": "114082686@N08", "title": "Re\u00f1aca by Night", "id": "22817187663", "height_z": "360"}, {"isfamily": 0, "url_z": "https://farm1.staticflickr.com/763/22557713414_16682fc3c2_z.jpg", "datetakengranularity": 0, "farm": 1, "datetakenunknown": "1", "ispublic": 1, "server": "763", "datetaken": "2015-11-21 12:33:25", "isfriend": 0, "secret": "16682fc3c2", "tags": "ocean chile travel viaje beach america wonderful valparaiso mar playa wanderlust viajes valpara\u00edso schoen valpo oceano traveler algarrobo canelo schon elcanelo lationamerica", "width_z": "640", "owner": "44697289@N03", "title": "en su m\u00e1xima expresi\u00f3n \ud83d\ude4c\ud83c\udf05", "id": "22557713414", "height_z": "335"}, {"isfamily": 0, "url_z": "https://farm1.staticflickr.com/576/22816085592_75e78080f8_z.jpg", "datetakengranularity": 0, "farm": 1, "datetakenunknown": "1", "ispublic": 1, "server": "576", "datetaken": "2015-11-06 08:17:39", "isfriend": 0, "secret": "75e78080f8", "tags": "chile flower color beach america trekking wonderful valparaiso mar sand colorful outdoor flor playa wanderlust valpara\u00edso valpo oceano algarrobo canelo penguinisland elcanelo lationamerica oceanopacifico islapinguino oceanoo", "width_z": "640", "owner": "44697289@N03", "title": "isla (sin) ping\u00fcino", "id": "22816085592", "height_z": "480"}, {"isfamily": 0, "url_z": "https://farm1.staticflickr.com/612/22319925248_837147ffe0_z.jpg", "datetakengranularity": "0", "farm": 1, "datetakenunknown": "0", "ispublic": 1, "server": "612", "datetaken": "2015-10-26 20:22:09", "isfriend": 0, "secret": "837147ffe0", "tags": "chile friends amigos beach del atardecer valparaiso mar peace angle vi\u00f1a camino wide paz playa v autos region valpo", "width_z": "640", "owner": "135632359@N07", "title": "IMG_1854", "id": "22319925248", "height_z": "427"}, {"isfamily": 0, "url_z": "https://farm1.staticflickr.com/660/22481630646_ac9ef89c30_z.jpg", "datetakengranularity": "0", "farm": 1, "datetakenunknown": "0", "ispublic": 1, "server": "660", "datetaken": "2015-10-26 20:25:05", "isfriend": 0, "secret": "ac9ef89c30", "tags": "chile friends amigos beach del atardecer valparaiso mar peace angle vi\u00f1a camino wide paz playa v autos region valpo", "width_z": "640", "owner": "135632359@N07", "title": "IMG_1861", "id": "22481630646", "height_z": "427"}, {"isfamily": 0, "url_z": "https://farm1.staticflickr.com/738/22494172342_1bc18c66e3_z.jpg", "datetakengranularity": "0", "farm": 1, "datetakenunknown": "0", "ispublic": 1, "server": "738", "datetaken": "2015-10-26 20:58:23", "isfriend": 0, "secret": "1bc18c66e3", "tags": "chile friends amigos beach del atardecer valparaiso mar peace angle vi\u00f1a camino wide paz playa v autos region valpo", "width_z": "640", "owner": "135632359@N07", "title": "vi\u00f1a", "id": "22494172342", "height_z": "427"}, {"isfamily": 0, "url_z": "https://farm1.staticflickr.com/653/22494162992_6dca84b1ff_z.jpg", "datetakengranularity": "0", "farm": 1, "datetakenunknown": "0", "ispublic": 1, "server": "653", "datetaken": "2015-10-26 20:59:48", "isfriend": 0, "secret": "6dca84b1ff", "tags": "chile friends amigos beach del atardecer valparaiso mar peace angle vi\u00f1a camino wide paz playa v autos region valpo", "width_z": "640", "owner": "135632359@N07", "title": "IMG_1869", "id": "22494162992", "height_z": "427"}, {"isfamily": 0, "url_z": "https://farm1.staticflickr.com/717/21884836184_551480d805_z.jpg", "datetakengranularity": "0", "farm": 1, "datetakenunknown": "0", "ispublic": 1, "server": "717", "datetaken": "2015-10-26 21:04:18", "isfriend": 0, "secret": "551480d805", "tags": "chile friends amigos beach del atardecer valparaiso mar peace angle vi\u00f1a camino wide paz playa v autos region valpo", "width_z": "640", "owner": "135632359@N07", "title": "IMG_1871", "id": "21884836184", "height_z": "427"}, {"isfamily": 0, "url_z": "https://farm6.staticflickr.com/5635/22319873978_869e1ffdac_z.jpg", "datetakengranularity": "0", "farm": 6, "datetakenunknown": "0", "ispublic": 1, "server": "5635", "datetaken": "2015-10-26 21:12:46", "isfriend": 0, "secret": "869e1ffdac", "tags": "chile friends amigos beach del atardecer valparaiso mar peace angle vi\u00f1a camino wide paz playa v autos region valpo", "width_z": "640", "owner": "135632359@N07", "title": "IMG_1873", "id": "22319873978", "height_z": "427"}, {"isfamily": 0, "url_z": "https://farm1.staticflickr.com/673/22507545435_93ffa6656c_z.jpg", "datetakengranularity": "0", "farm": 1, "datetakenunknown": "0", "ispublic": 1, "server": "673", "datetaken": "2015-10-26 21:13:51", "isfriend": 0, "secret": "93ffa6656c", "tags": "chile friends amigos beach del atardecer valparaiso mar peace angle vi\u00f1a camino wide paz playa v autos region valpo", "width_z": "640", "owner": "135632359@N07", "title": "IMG_1875", "id": "22507545435", "height_z": "427"}, {"isfamily": 0, "url_z": "https://farm6.staticflickr.com/5687/22481552706_45de62433c_z.jpg", "datetakengranularity": "0", "farm": 6, "datetakenunknown": "0", "ispublic": 1, "server": "5687", "datetaken": "2015-10-26 21:19:04", "isfriend": 0, "secret": "45de62433c", "tags": "chile friends amigos beach del atardecer valparaiso mar peace angle vi\u00f1a camino wide paz playa v autos region valpo", "width_z": "640", "owner": "135632359@N07", "title": "IMG_1880", "id": "22481552706", "height_z": "427"}, {"isfamily": 0, "url_z": "https://farm1.staticflickr.com/739/22494090612_3d3c861fda_z.jpg", "datetakengranularity": "0", "farm": 1, "datetakenunknown": "0", "ispublic": 1, "server": "739", "datetaken": "2015-10-26 21:20:29", "isfriend": 0, "secret": "3d3c861fda", "tags": "chile friends amigos beach del atardecer valparaiso mar peace angle vi\u00f1a camino wide paz playa v autos region valpo", "width_z": "640", "owner": "135632359@N07", "title": "IMG_1882", "id": "22494090612", "height_z": "427"}, {"isfamily": 0, "url_z": "https://farm6.staticflickr.com/5687/22507507175_8f32d87ca5_z.jpg", "datetakengranularity": "0", "farm": 6, "datetakenunknown": "0", "ispublic": 1, "server": "5687", "datetaken": "2015-10-26 21:20:57", "isfriend": 0, "secret": "8f32d87ca5", "tags": "chile friends amigos beach del atardecer valparaiso mar peace angle vi\u00f1a camino wide paz playa v autos region valpo", "width_z": "640", "owner": "135632359@N07", "title": "IMG_1883", "id": "22507507175", "height_z": "427"}, {"isfamily": 0, "url_z": "https://farm1.staticflickr.com/680/22319551420_068df0543e_z.jpg", "datetakengranularity": "0", "farm": 1, "datetakenunknown": "0", "ispublic": 1, "server": "680", "datetaken": "2015-10-26 21:22:43", "isfriend": 0, "secret": "068df0543e", "tags": "chile friends amigos beach del atardecer valparaiso mar peace angle vi\u00f1a camino wide paz playa v autos region valpo", "width_z": "640", "owner": "135632359@N07", "title": "IMG_1884", "id": "22319551420", "height_z": "427"}, {"isfamily": 0, "url_z": "https://farm6.staticflickr.com/5628/22494056862_4def40b379_z.jpg", "datetakengranularity": "0", "farm": 6, "datetakenunknown": "0", "ispublic": 1, "server": "5628", "datetaken": "2015-10-26 21:27:30", "isfriend": 0, "secret": "4def40b379", "tags": "chile friends amigos beach del atardecer valparaiso mar peace angle vi\u00f1a camino wide paz playa v autos region valpo", "width_z": "640", "owner": "135632359@N07", "title": "IMG_1889", "id": "22494056862", "height_z": "427"}, {"isfamily": 0, "url_z": "https://farm6.staticflickr.com/5793/22319526300_8f5041fdff_z.jpg", "datetakengranularity": "0", "farm": 6, "datetakenunknown": "0", "ispublic": 1, "server": "5793", "datetaken": "2015-10-26 21:29:05", "isfriend": 0, "secret": "8f5041fdff", "tags": "chile friends amigos beach del atardecer valparaiso mar peace angle vi\u00f1a camino wide paz playa v autos region valpo", "width_z": "640", "owner": "135632359@N07", "title": "IMG_1891", "id": "22319526300", "height_z": "427"}, {"isfamily": 0, "url_z": "https://farm6.staticflickr.com/5625/22481478846_44035a5b97_z.jpg", "datetakengranularity": "0", "farm": 6, "datetakenunknown": "0", "ispublic": 1, "server": "5625", "datetaken": "2015-10-26 21:32:14", "isfriend": 0, "secret": "44035a5b97", "tags": "chile friends amigos beach del atardecer valparaiso mar peace angle vi\u00f1a camino wide paz playa v autos region valpo", "width_z": "640", "owner": "135632359@N07", "title": "cuna de carcajadas", "id": "22481478846", "height_z": "427"}, {"isfamily": 0, "url_z": "https://farm1.staticflickr.com/597/21570219362_7756ac57d8_z.jpg", "datetakengranularity": "0", "farm": 1, "datetakenunknown": "0", "ispublic": 1, "server": "597", "datetaken": "2015-07-06 15:05:15", "isfriend": 0, "secret": "7756ac57d8", "tags": "chile dog costa beach valparaiso mar playa arena perro photograph fotografia pacifico rocas oceano", "width_z": "640", "owner": "68413083@N05", "title": "", "id": "21570219362", "height_z": "427"}, {"isfamily": 0, "url_z": "https://farm6.staticflickr.com/5765/21590244301_17e7f86b11_z.jpg", "datetakengranularity": "0", "farm": 6, "datetakenunknown": "0", "ispublic": 1, "server": "5765", "datetaken": "2015-07-06 15:04:29", "isfriend": 0, "secret": "17e7f86b11", "tags": "chile dog paisajes beach valparaiso mar playa aves arena perro pacifico rocas oceano", "width_z": "640", "owner": "68413083@N05", "title": "", "id": "21590244301", "height_z": "443"}, {"isfamily": 0, "url_z": "https://farm1.staticflickr.com/634/21393479688_d3909a66f5_z.jpg", "datetakengranularity": "0", "farm": 1, "datetakenunknown": "0", "ispublic": 1, "server": "634", "datetaken": "2015-07-06 15:04:28", "isfriend": 0, "secret": "d3909a66f5", "tags": "chile dog paisajes beach valparaiso mar playa arena perro photograph fotografia pacifico rocas oceano", "width_z": "640", "owner": "68413083@N05", "title": "", "id": "21393479688", "height_z": "427"}, {"isfamily": 0, "url_z": "https://farm1.staticflickr.com/667/21391889898_3c9610927b_z.jpg", "datetakengranularity": "0", "farm": 1, "datetakenunknown": "0", "ispublic": 1, "server": "667", "datetaken": "2015-07-06 15:04:08", "isfriend": 0, "secret": "3c9610927b", "tags": "chile dog paisajes costa beach del valparaiso mar playa perro photograph fotografia pacifico horizonte oceano orilla", "width_z": "640", "owner": "68413083@N05", "title": "", "id": "21391889898", "height_z": "398"}, {"isfamily": 0, "url_z": "https://farm8.staticflickr.com/7327/26895903884_43047eaf87_z.jpg", "datetakengranularity": "0", "farm": 8, "datetakenunknown": "0", "ispublic": 1, "server": "7327", "datetaken": "2016-06-06 12:38:54", "isfriend": 0, "secret": "43047eaf87", "tags": "chile blue people beach water valparaiso sand photojournalism playa portales educacion 2016 limpiaton", "width_z": "640", "owner": "76750925@N08", "title": "", "id": "26895903884", "height_z": "427"}, {"isfamily": 0, "url_z": "https://farm8.staticflickr.com/7191/27433049511_4e501c6ddf_z.jpg", "datetakengranularity": "0", "farm": 8, "datetakenunknown": "0", "ispublic": 1, "server": "7191", "datetaken": "2016-06-06 12:37:39", "isfriend": 0, "secret": "4e501c6ddf", "tags": "chile blue people beach water valparaiso sand photojournalism playa portales educacion 2016 limpiaton", "width_z": "640", "owner": "76750925@N08", "title": "", "id": "27433049511", "height_z": "427"}, {"isfamily": 0, "url_z": "https://farm8.staticflickr.com/7338/27406182112_e62140a097_z.jpg", "datetakengranularity": "0", "farm": 8, "datetakenunknown": "0", "ispublic": 1, "server": "7338", "datetaken": "2016-06-06 12:29:26", "isfriend": 0, "secret": "e62140a097", "tags": "chile blue people beach water valparaiso sand photojournalism playa portales educacion 2016 limpiaton", "width_z": "640", "owner": "76750925@N08", "title": "", "id": "27406182112", "height_z": "427"}, {"isfamily": 0, "url_z": "https://farm8.staticflickr.com/7082/27433035761_ee76178a6b_z.jpg", "datetakengranularity": "0", "farm": 8, "datetakenunknown": "0", "ispublic": 1, "server": "7082", "datetaken": "2016-06-06 12:46:40", "isfriend": 0, "secret": "ee76178a6b", "tags": "chile blue people beach water valparaiso sand photojournalism playa portales educacion 2016 limpiaton", "width_z": "640", "owner": "76750925@N08", "title": "", "id": "27433035761", "height_z": "427"}, {"isfamily": 0, "url_z": "https://farm8.staticflickr.com/7442/26801033753_452794f88c_z.jpg", "datetakengranularity": 0, "farm": 8, "datetakenunknown": "1", "ispublic": 1, "server": "7442", "datetaken": "2016-06-01 22:35:19", "isfriend": 0, "secret": "452794f88c", "tags": "ocean chile portrait anime cute beach colors beautiful beauty japan canon valparaiso mar chica cosplay retrato playa colores kawaii cosplayer takao japaneseculture belleza chilean chilena animegirl japaneseanimation animecharacter animegame cosplayportrait cosplaychile canonrebelt3 kantaicollection cosplayerchilena", "width_z": "640", "owner": "82027978@N03", "title": "Takao - Kantai Collection", "id": "26801033753", "height_z": "427"}, {"isfamily": 0, "url_z": "https://farm2.staticflickr.com/1577/24781301759_cda69ccee2_z.jpg", "datetakengranularity": "0", "farm": 2, "datetakenunknown": "0", "ispublic": 1, "server": "1577", "datetaken": "2016-02-19 13:48:37", "isfriend": 0, "secret": "cda69ccee2", "tags": "chile sea sun man hot men sol beach azul del canon rebel valparaiso mar holidays day waves vi\u00f1a playa paisaje dia salinas t5 quinta region vacaciones libre hombre ola joven tiempo vi\u00f1adelmar marea soleado turquesa tuquesa", "width_z": "640", "owner": "137396063@N08", "title": "IMG_5230", "id": "24781301759", "height_z": "427"}, {"isfamily": 0, "url_z": "https://farm2.staticflickr.com/1662/24958470422_526d4a2b72_z.jpg", "datetakengranularity": "0", "farm": 2, "datetakenunknown": "0", "ispublic": 1, "server": "1662", "datetaken": "2015-02-18 16:43:38", "isfriend": 0, "secret": "526d4a2b72", "tags": "chile travel sea beach composition de valparaiso mar flickr photos playa leon fotos level verano punta catalog quinta region dise\u00f1o videos imagen catalogo portafolio proyecto composicion figura tralca calquin leoncalquin quincal", "width_z": "640", "owner": "48278693@N00", "title": "Playa Punta De Tralca / Chile", "id": "24958470422", "height_z": "427"}, {"isfamily": 0, "url_z": "https://farm1.staticflickr.com/708/23418180796_d3b5df2e33_z.jpg", "datetakengranularity": "0", "farm": 1, "datetakenunknown": "0", "ispublic": 1, "server": "708", "datetaken": "2014-02-26 11:40:23", "isfriend": 0, "secret": "d3b5df2e33", "tags": "chile sea summer costa beach valparaiso mar seaside playa verano re\u00f1aca vi\u00f1adelmar", "width_z": "640", "owner": "114082686@N08", "title": "Re\u00f1aca by Day", "id": "23418180796", "height_z": "360"}], "pages": 21, "total": "1036", "page": 1, "perpage": 50}, "stat": "ok"}